\relax 
\providecommand\hyper@newdestlabel[2]{}
\providecommand\BKM@entry[2]{}
\catcode `"\active 
\providecommand\HyperFirstAtBeginDocument{\AtBeginDocument}
\HyperFirstAtBeginDocument{\ifx\hyper@anchor\@undefined
\global\let\oldcontentsline\contentsline
\gdef\contentsline#1#2#3#4{\oldcontentsline{#1}{#2}{#3}}
\global\let\oldnewlabel\newlabel
\gdef\newlabel#1#2{\newlabelxx{#1}#2}
\gdef\newlabelxx#1#2#3#4#5#6{\oldnewlabel{#1}{{#2}{#3}}}
\AtEndDocument{\ifx\hyper@anchor\@undefined
\let\contentsline\oldcontentsline
\let\newlabel\oldnewlabel
\fi}
\fi}
\global\let\hyper@last\relax 
\gdef\HyperFirstAtBeginDocument#1{#1}
\providecommand\HyField@AuxAddToFields[1]{}
\providecommand\HyField@AuxAddToCoFields[2]{}
\AC@reset@newl@bel
\abx@aux@sortscheme{nty}
\abx@aux@refcontext{nty/global/}
\providecommand \oddpage@label [2]{}
\providecommand\tcolorbox@label[2]{}
\@writefile{toc}{\boolfalse {citerequest}\boolfalse {citetracker}\boolfalse {pagetracker}\boolfalse {backtracker}\relax }
\@writefile{lof}{\boolfalse {citerequest}\boolfalse {citetracker}\boolfalse {pagetracker}\boolfalse {backtracker}\relax }
\@writefile{lot}{\boolfalse {citerequest}\boolfalse {citetracker}\boolfalse {pagetracker}\boolfalse {backtracker}\relax }
\select@language{english}
\@writefile{toc}{\defcounter {refsection}{0}\relax }\@writefile{toc}{\select@language{english}}
\@writefile{lof}{\defcounter {refsection}{0}\relax }\@writefile{lof}{\select@language{english}}
\@writefile{lot}{\defcounter {refsection}{0}\relax }\@writefile{lot}{\select@language{english}}
\select@language{english}
\@writefile{toc}{\defcounter {refsection}{0}\relax }\@writefile{toc}{\select@language{english}}
\@writefile{lof}{\defcounter {refsection}{0}\relax }\@writefile{lof}{\select@language{english}}
\@writefile{lot}{\defcounter {refsection}{0}\relax }\@writefile{lot}{\select@language{english}}
\oddpage@label{1}{1}
\newlabel{eq:preface:T}{{1}{vii}{Cartesian Product}{equation.0.0.1}{}}
\BKM@entry{id=1,dest={706172742E31},srcline={37},srcfile={42617369634D6174682E746578}}{4920466F756E646174696F6E73}
\@writefile{toc}{\contentsline {part}{I\hspace  {1em}Foundations}{1}{part.1}}
\BKM@entry{id=2,dest={636861707465722E31},srcline={1},srcfile={6368613136302E746578}}{5265616C20616E6420436F6D706C6578204E756D62657273}
\BKM@entry{id=3,dest={73656374696F6E2E312E31},srcline={9},srcfile={6368613136302E746578}}{4F726465726564204669656C6473}
\newlabel{part:foundations}{{I}{2}{Foundations}{part.1}{}}
\@writefile{toc}{\contentsline {chapter}{\numberline {1}Real and Complex Numbers}{2}{chapter.1}}
\@writefile{lof}{\addvspace {10\p@ }}
\@writefile{lot}{\addvspace {10\p@ }}
\@writefile{loa}{\addvspace {10\p@ }}
\newlabel{cha:cha160}{{1}{2}{Real and Complex Numbers}{chapter.1}{}}
\@writefile{toc}{\contentsline {section}{\numberline {1.1}Ordered Fields}{2}{section.1.1}}
\@writefile{loe}{\addvspace {10\p@ }}
\@writefile{loe}{\contentsline {definition}{\numberline {1.1}Definition}{2}{definition.1.1}}
\@writefile{loe}{\contentsline {proposition}{\numberline {1.2}Proposition}{3}{proposition.1.2}}
\newlabel{prop:cha160:prod-zero}{{1.2}{3}{}{proposition.1.2}{}}
\@writefile{loe}{\contentsline {proof}{\numberline {\let \autodot \@empty }Proof}{3}{thmt@dummyctr.dummy.3}}
\@writefile{loe}{\contentsline {proposition}{\numberline {1.3}Proposition}{3}{proposition.1.3}}
\newlabel{prop:cha160:field-rules}{{1.3}{3}{}{proposition.1.3}{}}
\newlabel{prop:cha160:field-rules:x}{{{{(10)}}}{3}{}{Item.10}{}}
\@writefile{loe}{\contentsline {proof}{\numberline {\let \autodot \@empty }Proof}{3}{thmt@dummyctr.dummy.5}}
\@writefile{loe}{\contentsline {remark}{\numberline {1.4}Remark}{4}{remark.1.4}}
\@writefile{loe}{\contentsline {proof}{\numberline {\let \autodot \@empty }Proof}{4}{thmt@dummyctr.dummy.7}}
\@writefile{loe}{\contentsline {definition}{\numberline {1.5}Definition}{4}{definition.1.5}}
\newlabel{def:ofield}{{1.5}{4}{}{definition.1.5}{}}
\newlabel{def:ofield:1}{{(O1)}{4}{(O1)\namedlabel {def:ofield:1}{(O1)}}{definition.1.5}{}}
\newlabel{def:ofield:2}{{(O2)}{4}{(O2)\namedlabel {def:ofield:2}{(O2)}}{definition.1.5}{}}
\@writefile{loe}{\contentsline {proposition}{\numberline {1.6}Proposition}{4}{proposition.1.6}}
\newlabel{prop:cha160:ofield-rules}{{1.6}{4}{}{proposition.1.6}{}}
\newlabel{prop:cha160:ofield-rules:01}{{{{(1)}}}{4}{}{Item.14}{}}
\newlabel{prop:cha160:ofield-rules:02}{{{{(2)}}}{4}{}{Item.15}{}}
\newlabel{prop:cha160:ofield-rules:03}{{{{(3)}}}{4}{}{Item.16}{}}
\newlabel{prop:cha160:ofield-rules:04}{{{{(4)}}}{4}{}{Item.17}{}}
\newlabel{prop:cha160:ofield-rules:05}{{{{(5)}}}{4}{}{Item.18}{}}
\newlabel{prop:cha160:ofield-rules:06}{{{{(6)}}}{4}{}{Item.19}{}}
\newlabel{prop:cha160:ofield-rules:07}{{{{(7)}}}{4}{}{Item.20}{}}
\newlabel{prop:cha160:ofield-rules:08}{{{{(8)}}}{4}{}{Item.21}{}}
\newlabel{prop:cha160:ofield-rules:09}{{{{(9)}}}{4}{}{Item.22}{}}
\newlabel{prop:cha160:ofield-rules:10}{{{{(10)}}}{4}{}{Item.23}{}}
\newlabel{prop:cha160:ofield-rules:11}{{{{(11)}}}{4}{}{Item.24}{}}
\newlabel{prop:cha160:ofield-rules:12}{{{{(12)}}}{4}{}{Item.25}{}}
\newlabel{prop:cha160:ofield-rules:13}{{{{(13)}}}{4}{}{Item.26}{}}
\newlabel{prop:cha160:ofield-rules:14}{{{{(14)}}}{4}{}{Item.27}{}}
\newlabel{prop:cha160:ofield-rules:15}{{{{(15)}}}{4}{}{Item.28}{}}
\newlabel{prop:cha160:ofield-rules:16}{{{{(16)}}}{4}{}{Item.29}{}}
\newlabel{prop:cha160:ofield-rules:17}{{{{(17)}}}{4}{}{Item.30}{}}
\newlabel{prop:cha160:ofield-rules:18}{{{{(18)}}}{5}{}{Item.31}{}}
\newlabel{prop:cha160:ofield-rules:19}{{{{(19)}}}{5}{}{Item.32}{}}
\newlabel{prop:cha160:ofield-rules:20}{{{{(20)}}}{5}{}{Item.33}{}}
\newlabel{prop:cha160:ofield-rules:21}{{{{(21)}}}{5}{}{Item.34}{}}
\newlabel{prop:cha160:ofield-rules:22}{{{{(22)}}}{5}{}{Item.35}{}}
\@writefile{loe}{\contentsline {proof}{\numberline {\let \autodot \@empty }Proof}{5}{thmt@dummyctr.dummy.10}}
\@writefile{loe}{\contentsline {proposition}{\numberline {1.7}Proposition}{6}{proposition.1.7}}
\newlabel{prop:cha160:ofield-powers-1}{{1.7}{6}{}{proposition.1.7}{}}
\newlabel{prop:cha160:ofield-powers-1:1}{{{{(1)}}}{6}{}{Item.54}{}}
\newlabel{prop:cha160:ofield-powers-1:2}{{{{(2)}}}{6}{}{Item.55}{}}
\newlabel{prop:cha160:ofield-powers-1:3}{{{{(3)}}}{6}{}{Item.56}{}}
\@writefile{loe}{\contentsline {proof}{\numberline {\let \autodot \@empty }Proof}{6}{thmt@dummyctr.dummy.12}}
\@writefile{loe}{\contentsline {proposition}{\numberline {1.8}Proposition}{6}{proposition.1.8}}
\newlabel{prop:cha160:ofield-powers-2}{{1.8}{6}{}{proposition.1.8}{}}
\BKM@entry{id=4,dest={73656374696F6E2E312E32},srcline={319},srcfile={6368613136302E746578}}{436F6D706C6574656E657373205C32303520746865205265616C73}
\@writefile{loe}{\contentsline {proof}{\numberline {\let \autodot \@empty }Proof}{7}{thmt@dummyctr.dummy.14}}
\@writefile{toc}{\contentsline {section}{\numberline {1.2}Completeness -- the Reals}{7}{section.1.2}}
\newlabel{sec:ch160:completeness}{{1.2}{7}{Completeness -- the Reals}{section.1.2}{}}
\@writefile{loe}{\contentsline {definition}{\numberline {1.9}Definition}{7}{definition.1.9}}
\newlabel{def:cha160:completeness}{{1.9}{7}{}{definition.1.9}{}}
\@writefile{loe}{\contentsline {theorem}{\numberline {1.10}Theorem}{7}{theorem.1.10}}
\@writefile{loe}{\contentsline {definition}{\numberline {1.11}Definition}{7}{definition.1.11}}
\@writefile{loe}{\contentsline {remark}{\numberline {1.12}Remark}{7}{remark.1.12}}
\@writefile{lot}{\contentsline {table}{\numberline {1.1}{\ignorespaces Examples for rounding rational numbers with our convention. Adding trailing zeros, like here in line~5, is only admissible since the left column is assumed to give exact representations. The example in line~2 cannot be given in common notation, since $123500000$ can be interpreted in two ways: the zeros indicate precision (which is not the case here) or are just there instead of the~$10^8$. Using scientific notation is thus better here.\relax }}{8}{table.caption.5}}
\providecommand*\caption@xref[2]{\@setref\relax\@undefined{#1}}
\newlabel{tab:cha160:rounding}{{1.1}{8}{Examples for rounding rational numbers with our convention. Adding trailing zeros, like here in line~5, is only admissible since the left column is assumed to give exact representations. The example in line~2 cannot be given in common notation, since $123500000$ can be interpreted in two ways: the zeros indicate precision (which is not the case here) or are just there instead of the~$10^8$. Using scientific notation is thus better here.\relax }{table.caption.5}{}}
\@writefile{loe}{\contentsline {proof}{\numberline {\let \autodot \@empty }Proof}{8}{thmt@dummyctr.dummy.19}}
\@writefile{loe}{\contentsline {remark}{\numberline {1.13}Remark}{8}{remark.1.13}}
\@writefile{loe}{\contentsline {remark}{\numberline {1.14}Remark}{9}{remark.1.14}}
\@writefile{loe}{\contentsline {proof}{\numberline {\let \autodot \@empty }Proof}{9}{thmt@dummyctr.dummy.22}}
\@writefile{loe}{\contentsline {proposition}{\numberline {1.15}Proposition}{9}{proposition.1.15}}
\newlabel{lem:cha160:sup-eps}{{1.15}{9}{}{proposition.1.15}{}}
\@writefile{loe}{\contentsline {proof}{\numberline {\let \autodot \@empty }Proof}{10}{thmt@dummyctr.dummy.24}}
\@writefile{loe}{\contentsline {theorem}{\numberline {1.16}Theorem}{10}{theorem.1.16}}
\newlabel{thm:ch160:NN-unbounded}{{1.16}{10}{}{theorem.1.16}{}}
\@writefile{loe}{\contentsline {proof}{\numberline {\let \autodot \@empty }Proof}{10}{thmt@dummyctr.dummy.26}}
\@writefile{loe}{\contentsline {corollary}{\numberline {1.17}Corollary}{10}{corollary.1.17}}
\newlabel{cor:cha160:archimedes}{{1.17}{10}{}{corollary.1.17}{}}
\@writefile{loe}{\contentsline {proof}{\numberline {\let \autodot \@empty }Proof}{10}{thmt@dummyctr.dummy.28}}
\@writefile{loe}{\contentsline {proposition}{\numberline {1.18}Proposition}{10}{proposition.1.18}}
\newlabel{prop:cha160:monomial-strict-inc}{{1.18}{10}{}{proposition.1.18}{}}
\@writefile{loe}{\contentsline {proof}{\numberline {\let \autodot \@empty }Proof}{10}{thmt@dummyctr.dummy.30}}
\@writefile{loe}{\contentsline {theorem}{\numberline {1.19}Theorem}{10}{theorem.1.19}}
\@writefile{loe}{\contentsline {proof}{\numberline {\let \autodot \@empty }Proof}{10}{thmt@dummyctr.dummy.32}}
\@writefile{loe}{\contentsline {definition}{\numberline {1.20}Definition}{11}{definition.1.20}}
\@writefile{loe}{\contentsline {remark}{\numberline {1.21}Remark}{11}{remark.1.21}}
\newlabel{rem:cha160:power-root-inverse}{{1.21}{11}{}{remark.1.21}{}}
\@writefile{loe}{\contentsline {proof}{\numberline {\let \autodot \@empty }Proof}{11}{thmt@dummyctr.dummy.35}}
\@writefile{loe}{\contentsline {remark}{\numberline {1.22}Remark}{11}{remark.1.22}}
\newlabel{rem:cha160:root-mult}{{1.22}{11}{}{remark.1.22}{}}
\@writefile{loe}{\contentsline {proof}{\numberline {\let \autodot \@empty }Proof}{11}{thmt@dummyctr.dummy.37}}
\@writefile{loe}{\contentsline {remark}{\numberline {1.23}Remark}{11}{remark.1.23}}
\newlabel{rem:cha160:pos-int}{{1.23}{11}{}{remark.1.23}{}}
\@writefile{loe}{\contentsline {proof}{\numberline {\let \autodot \@empty }Proof}{11}{thmt@dummyctr.dummy.39}}
\@writefile{loe}{\contentsline {remark}{\numberline {1.24}Remark}{11}{remark.1.24}}
\newlabel{rem:cha160:int-between}{{1.24}{11}{}{remark.1.24}{}}
\@writefile{loe}{\contentsline {proof}{\numberline {\let \autodot \@empty }Proof}{11}{thmt@dummyctr.dummy.41}}
\BKM@entry{id=5,dest={73656374696F6E2E312E33},srcline={724},srcfile={6368613136302E746578}}{52322061732061204669656C64205C3230352074686520436F6D706C6578204E756D62657273}
\@writefile{loe}{\contentsline {proposition}{\numberline {1.25}Proposition}{12}{proposition.1.25}}
\newlabel{prop:cha160:min-max}{{1.25}{12}{}{proposition.1.25}{}}
\@writefile{loe}{\contentsline {proof}{\numberline {\let \autodot \@empty }Proof}{12}{thmt@dummyctr.dummy.43}}
\@writefile{loe}{\contentsline {corollary}{\numberline {1.26}Corollary}{12}{corollary.1.26}}
\@writefile{loe}{\contentsline {proof}{\numberline {\let \autodot \@empty }Proof}{12}{thmt@dummyctr.dummy.45}}
\@writefile{loe}{\contentsline {proposition}{\numberline {1.27}Proposition}{12}{proposition.1.27}}
\@writefile{loe}{\contentsline {proof}{\numberline {\let \autodot \@empty }Proof}{12}{thmt@dummyctr.dummy.47}}
\@writefile{loe}{\contentsline {definition}{\numberline {1.28}Definition}{12}{definition.1.28}}
\@writefile{loe}{\contentsline {proposition}{\numberline {1.29}Proposition}{12}{proposition.1.29}}
\@writefile{loe}{\contentsline {proof}{\numberline {\let \autodot \@empty }Proof}{12}{thmt@dummyctr.dummy.50}}
\@writefile{toc}{\contentsline {section}{\numberline {1.3}$\mathds  {R}^2$ as a Field -- the Complex Numbers}{12}{section.1.3}}
\newlabel{eq:cha160:complex:1}{{1.1}{12}{$\RR ^2$ as a Field -- the Complex Numbers}{equation.1.3.1}{}}
\newlabel{eq:cha160:complex:2}{{1.2}{13}{$\RR ^2$ as a Field -- the Complex Numbers}{equation.1.3.2}{}}
\@writefile{loe}{\contentsline {theorem}{\numberline {1.30}Theorem}{13}{theorem.1.30}}
\@writefile{loe}{\contentsline {proof}{\numberline {\let \autodot \@empty }Proof}{13}{thmt@dummyctr.dummy.52}}
\@writefile{loe}{\contentsline {definition}{\numberline {1.31}Definition}{14}{definition.1.31}}
\@writefile{loe}{\contentsline {definition}{\numberline {1.32}Definition}{14}{definition.1.32}}
\newlabel{def:cha160:abs}{{1.32}{14}{}{definition.1.32}{}}
\@writefile{loe}{\contentsline {proposition}{\numberline {1.33}Proposition}{14}{proposition.1.33}}
\newlabel{prop:cha160:complex-rules}{{1.33}{14}{}{proposition.1.33}{}}
\newlabel{prop:cha160:complex-rules:01}{{{{(1)}}}{14}{}{Item.64}{}}
\newlabel{prop:cha160:complex-rules:02}{{{{(2)}}}{14}{}{Item.65}{}}
\newlabel{prop:cha160:complex-rules:03}{{{{(3)}}}{14}{}{Item.66}{}}
\@writefile{loe}{\contentsline {proof}{\numberline {\let \autodot \@empty }Proof}{15}{thmt@dummyctr.dummy.56}}
\@writefile{loe}{\contentsline {proposition}{\numberline {1.34}Proposition}{16}{proposition.1.34}}
\newlabel{prop:cha160:complex-no-order}{{1.34}{16}{}{proposition.1.34}{}}
\@writefile{loe}{\contentsline {proof}{\numberline {\let \autodot \@empty }Proof}{16}{thmt@dummyctr.dummy.58}}
\@writefile{loe}{\contentsline {theorem}{\numberline {1.35}Theorem\thmtformatoptarg {Fundamental Theorem of Algebra}}{16}{theorem.1.35}}
\@writefile{loe}{\contentsline {definition}{\numberline {1.36}Definition}{16}{definition.1.36}}
\@writefile{loe}{\contentsline {proposition}{\numberline {1.37}Proposition}{16}{proposition.1.37}}
\newlabel{prop:cha160:two-roots}{{1.37}{16}{}{proposition.1.37}{}}
\@writefile{loe}{\contentsline {proof}{\numberline {\let \autodot \@empty }Proof}{16}{thmt@dummyctr.dummy.62}}
\@writefile{loe}{\contentsline {proposition}{\numberline {1.38}Proposition}{16}{proposition.1.38}}
\newlabel{prop:cha160:root-expressions}{{1.38}{16}{}{proposition.1.38}{}}
\@writefile{loe}{\contentsline {proof}{\numberline {\let \autodot \@empty }Proof}{17}{thmt@dummyctr.dummy.64}}
\@writefile{loe}{\contentsline {theorem}{\numberline {1.39}Theorem}{17}{theorem.1.39}}
\newlabel{thm:cha160:abc-1}{{1.39}{17}{}{theorem.1.39}{}}
\@writefile{loe}{\contentsline {proof}{\numberline {\let \autodot \@empty }Proof}{17}{thmt@dummyctr.dummy.66}}
\@writefile{loe}{\contentsline {corollary}{\numberline {1.40}Corollary}{17}{corollary.1.40}}
\newlabel{cor:cha160:abc-real}{{1.40}{17}{}{corollary.1.40}{}}
\@writefile{loe}{\contentsline {proof}{\numberline {\let \autodot \@empty }Proof}{17}{thmt@dummyctr.dummy.68}}
\BKM@entry{id=6,dest={706172742E32},srcline={41},srcfile={42617369634D6174682E746578}}{4949204C696E65617220416C6765627261}
\@writefile{toc}{\contentsline {part}{II\hspace  {1em}Linear Algebra}{19}{part.2}}
\BKM@entry{id=7,dest={636861707465722E32},srcline={1},srcfile={6368613231302E746578}}{566563746F7220537061636573}
\BKM@entry{id=8,dest={73656374696F6E2E322E31},srcline={10},srcfile={6368613231302E746578}}{46756E64616D656E74616C73}
\newlabel{part:linear-algebra}{{II}{20}{Linear Algebra}{part.2}{}}
\@writefile{toc}{\contentsline {chapter}{\numberline {2}Vector Spaces}{20}{chapter.2}}
\@writefile{lof}{\addvspace {10\p@ }}
\@writefile{lot}{\addvspace {10\p@ }}
\@writefile{loa}{\addvspace {10\p@ }}
\newlabel{cha:cha210}{{2}{20}{Vector Spaces}{chapter.2}{}}
\@writefile{toc}{\contentsline {section}{\numberline {2.1}Fundamentals}{20}{section.2.1}}
\@writefile{loe}{\addvspace {10\p@ }}
\@writefile{loe}{\contentsline {definition}{\numberline {2.1}Definition}{20}{definition.2.1}}
\newlabel{eq:cha210:ax1}{{2.1}{20}{}{equation.2.1.1}{}}
\newlabel{eq:cha210:ax2}{{2.2}{20}{}{equation.2.1.2}{}}
\newlabel{eq:cha210:ax3}{{2.3}{20}{}{equation.2.1.3}{}}
\newlabel{eq:cha210:ax4}{{2.4}{20}{}{equation.2.1.4}{}}
\newlabel{eq:cha210:ax1:b}{{2.5}{20}{Fundamentals}{equation.2.1.5}{}}
\newlabel{eq:cha210:ax2:b}{{2.6}{20}{Fundamentals}{equation.2.1.6}{}}
\newlabel{eq:cha210:ax3:b}{{2.7}{21}{Fundamentals}{equation.2.1.7}{}}
\newlabel{eq:cha210:ax4:b}{{2.8}{21}{Fundamentals}{equation.2.1.8}{}}
\@writefile{loe}{\contentsline {remark}{\numberline {2.2}Remark}{21}{remark.2.2}}
\@writefile{loe}{\contentsline {proof}{\numberline {\let \autodot \@empty }Proof}{21}{thmt@dummyctr.dummy.71}}
\@writefile{loe}{\contentsline {definition}{\numberline {2.3}Definition}{21}{definition.2.3}}
\newlabel{def:cha210:matrix}{{2.3}{21}{}{definition.2.3}{}}
\newlabel{eq:cha210:ex-mat}{{2.9}{21}{Fundamentals}{equation.2.1.9}{}}
\@writefile{loe}{\contentsline {definition}{\numberline {2.4}Definition}{21}{definition.2.4}}
\@writefile{loe}{\contentsline {remark}{\numberline {2.5}Remark}{23}{remark.2.5}}
\@writefile{loe}{\contentsline {proof}{\numberline {\let \autodot \@empty }Proof}{23}{thmt@dummyctr.dummy.75}}
\@writefile{loe}{\contentsline {remark}{\numberline {2.6}Remark}{23}{remark.2.6}}
\@writefile{loe}{\contentsline {proof}{\numberline {\let \autodot \@empty }Proof}{23}{thmt@dummyctr.dummy.77}}
\@writefile{loe}{\contentsline {proposition}{\numberline {2.7}Proposition}{23}{proposition.2.7}}
\newlabel{prop:cha210:rules}{{2.7}{23}{}{proposition.2.7}{}}
\newlabel{prop:cha210:rules:1}{{{{(1)}}}{23}{}{Item.96}{}}
\newlabel{prop:cha210:rules:2}{{{{(2)}}}{23}{}{Item.97}{}}
\newlabel{prop:cha210:rules:3}{{{{(3)}}}{23}{}{Item.98}{}}
\newlabel{prop:cha210:rules:4}{{{{(4)}}}{23}{}{Item.99}{}}
\@writefile{loe}{\contentsline {proof}{\numberline {\let \autodot \@empty }Proof}{23}{thmt@dummyctr.dummy.79}}
\BKM@entry{id=9,dest={73656374696F6E2E322E32},srcline={261},srcfile={6368613231302E746578}}{4C696E65617220436F6D62696E6174696F6E7320616E64205370616E}
\@writefile{toc}{\contentsline {section}{\numberline {2.2}Linear Combinations and Span}{24}{section.2.2}}
\@writefile{loe}{\contentsline {definition}{\numberline {2.8}Definition}{24}{definition.2.8}}
\newlabel{eq:cha210:LC}{{2.10}{25}{Linear Combinations and Span}{equation.2.2.10}{}}
\@writefile{loe}{\contentsline {example}{\numberline {2.9}Example}{25}{example.2.9}}
\newlabel{ex:cha210:LC}{{2.9}{25}{}{example.2.9}{}}
\newlabel{ex:cha210:LC:2}{{{{(2)}}}{26}{}{Item.105}{}}
\@writefile{loe}{\contentsline {remark}{\numberline {2.10}Remark}{27}{remark.2.10}}
\newlabel{rem:cha210:span-inv}{{2.10}{27}{}{remark.2.10}{}}
\@writefile{loe}{\contentsline {proof}{\numberline {\let \autodot \@empty }Proof}{27}{thmt@dummyctr.dummy.83}}
\BKM@entry{id=10,dest={73656374696F6E2E322E33},srcline={493},srcfile={6368613231302E746578}}{4C696E65617220496E646570656E64656E6365}
\@writefile{loe}{\contentsline {proposition}{\numberline {2.11}Proposition}{28}{proposition.2.11}}
\newlabel{prop:cha210:xchange:span}{{2.11}{28}{}{proposition.2.11}{}}
\@writefile{loe}{\contentsline {proof}{\numberline {\let \autodot \@empty }Proof}{28}{thmt@dummyctr.dummy.85}}
\@writefile{toc}{\contentsline {section}{\numberline {2.3}Linear Independence}{28}{section.2.3}}
\@writefile{loe}{\contentsline {definition}{\numberline {2.12}Definition}{28}{definition.2.12}}
\@writefile{loe}{\contentsline {example}{\numberline {2.13}Example}{28}{example.2.13}}
\newlabel{ex:cha210:lin-in}{{2.13}{28}{}{example.2.13}{}}
\@writefile{loe}{\contentsline {remark}{\numberline {2.14}Remark}{29}{remark.2.14}}
\@writefile{loe}{\contentsline {proof}{\numberline {\let \autodot \@empty }Proof}{29}{thmt@dummyctr.dummy.89}}
\@writefile{loe}{\contentsline {remark}{\numberline {2.15}Remark}{29}{remark.2.15}}
\@writefile{loe}{\contentsline {proof}{\numberline {\let \autodot \@empty }Proof}{29}{thmt@dummyctr.dummy.91}}
\@writefile{loe}{\contentsline {proposition}{\numberline {2.16}Proposition}{29}{proposition.2.16}}
\newlabel{prop:cha210:one-is-LC}{{2.16}{29}{}{proposition.2.16}{}}
\@writefile{loe}{\contentsline {proof}{\numberline {\let \autodot \@empty }Proof}{29}{thmt@dummyctr.dummy.93}}
\@writefile{loe}{\contentsline {proposition}{\numberline {2.17}Proposition}{30}{proposition.2.17}}
\newlabel{prop:cha210:final-straw}{{2.17}{30}{}{proposition.2.17}{}}
\@writefile{loe}{\contentsline {proof}{\numberline {\let \autodot \@empty }Proof}{30}{thmt@dummyctr.dummy.95}}
\@writefile{loe}{\contentsline {proposition}{\numberline {2.18}Proposition}{30}{proposition.2.18}}
\newlabel{prop:cha210:xchange:lin-in}{{2.18}{30}{}{proposition.2.18}{}}
\@writefile{loe}{\contentsline {proof}{\numberline {\let \autodot \@empty }Proof}{30}{thmt@dummyctr.dummy.97}}
\BKM@entry{id=11,dest={73656374696F6E2E322E34},srcline={672},srcfile={6368613231302E746578}}{537562737061636573}
\@writefile{toc}{\contentsline {section}{\numberline {2.4}Subspaces}{31}{section.2.4}}
\@writefile{loe}{\contentsline {definition}{\numberline {2.19}Definition}{31}{definition.2.19}}
\@writefile{loe}{\contentsline {remark}{\numberline {2.20}Remark}{31}{remark.2.20}}
\newlabel{rem:cha210:span-in-S}{{2.20}{31}{}{remark.2.20}{}}
\@writefile{loe}{\contentsline {proof}{\numberline {\let \autodot \@empty }Proof}{31}{thmt@dummyctr.dummy.100}}
\@writefile{loe}{\contentsline {remark}{\numberline {2.21}Remark}{31}{remark.2.21}}
\newlabel{rem:cha210:subspace-is-vector-space}{{2.21}{31}{}{remark.2.21}{}}
\@writefile{loe}{\contentsline {proof}{\numberline {\let \autodot \@empty }Proof}{31}{thmt@dummyctr.dummy.102}}
\@writefile{loe}{\contentsline {proposition}{\numberline {2.22}Proposition}{31}{proposition.2.22}}
\newlabel{prop:cha210:span-subspace}{{2.22}{31}{}{proposition.2.22}{}}
\@writefile{loe}{\contentsline {proof}{\numberline {\let \autodot \@empty }Proof}{31}{thmt@dummyctr.dummy.104}}
\@writefile{loe}{\contentsline {definition}{\numberline {2.23}Definition}{31}{definition.2.23}}
\BKM@entry{id=12,dest={73656374696F6E2E322E35},srcline={770},srcfile={6368613231302E746578}}{426173697320616E642044696D656E73696F6E}
\@writefile{loe}{\contentsline {proposition}{\numberline {2.24}Proposition}{32}{proposition.2.24}}
\newlabel{prop:cha210:contained-direction}{{2.24}{32}{}{proposition.2.24}{}}
\@writefile{loe}{\contentsline {proof}{\numberline {\let \autodot \@empty }Proof}{32}{thmt@dummyctr.dummy.107}}
\@writefile{toc}{\contentsline {section}{\numberline {2.5}Basis and Dimension}{32}{section.2.5}}
\@writefile{loe}{\contentsline {definition}{\numberline {2.25}Definition}{32}{definition.2.25}}
\@writefile{loe}{\contentsline {remark}{\numberline {2.26}Remark}{32}{remark.2.26}}
\@writefile{loe}{\contentsline {proof}{\numberline {\let \autodot \@empty }Proof}{33}{thmt@dummyctr.dummy.110}}
\@writefile{loe}{\contentsline {proposition}{\numberline {2.27}Proposition}{33}{proposition.2.27}}
\newlabel{prop:cha210:basis1}{{2.27}{33}{}{proposition.2.27}{}}
\newlabel{prop:cha210:basis1:1}{{{{(1)}}}{33}{}{Item.117}{}}
\newlabel{prop:cha210:basis1:2}{{{{(2)}}}{33}{}{Item.118}{}}
\@writefile{loe}{\contentsline {proof}{\numberline {\let \autodot \@empty }Proof}{33}{thmt@dummyctr.dummy.112}}
\newlabel{eq:prop:cha210:basis1:1}{{2.11}{33}{}{equation.2.5.11}{}}
\@writefile{loe}{\contentsline {proposition}{\numberline {2.28}Proposition}{33}{proposition.2.28}}
\newlabel{prop:cha210:basis-equiv}{{2.28}{33}{}{proposition.2.28}{}}
\newlabel{prop:cha210:basis-equiv:1}{{{{(1)}}}{33}{}{Item.119}{}}
\newlabel{prop:cha210:basis-equiv:2}{{{{(2)}}}{33}{}{Item.120}{}}
\newlabel{prop:cha210:basis-equiv:3}{{{{(3)}}}{33}{}{Item.121}{}}
\@writefile{loe}{\contentsline {proof}{\numberline {\let \autodot \@empty }Proof}{33}{thmt@dummyctr.dummy.114}}
\@writefile{loe}{\contentsline {theorem}{\numberline {2.29}Theorem\thmtformatoptarg {Steinitz Exchange Lemma}}{34}{theorem.2.29}}
\newlabel{thm:cha210:steinitz}{{2.29}{34}{Steinitz Exchange Lemma}{theorem.2.29}{}}
\@writefile{loe}{\contentsline {proof}{\numberline {\let \autodot \@empty }Proof}{34}{thmt@dummyctr.dummy.116}}
\@writefile{loe}{\contentsline {corollary}{\numberline {2.30}Corollary}{35}{corollary.2.30}}
\@writefile{loe}{\contentsline {proof}{\numberline {\let \autodot \@empty }Proof}{35}{thmt@dummyctr.dummy.118}}
\@writefile{loe}{\contentsline {definition}{\numberline {2.31}Definition}{35}{definition.2.31}}
\@writefile{loe}{\contentsline {remark}{\numberline {2.32}Remark}{35}{remark.2.32}}
\@writefile{loe}{\contentsline {proof}{\numberline {\let \autodot \@empty }Proof}{35}{thmt@dummyctr.dummy.121}}
\@writefile{loe}{\contentsline {remark}{\numberline {2.33}Remark}{35}{remark.2.33}}
\newlabel{rem:cha210:span-dim}{{2.33}{35}{}{remark.2.33}{}}
\@writefile{loe}{\contentsline {proof}{\numberline {\let \autodot \@empty }Proof}{35}{thmt@dummyctr.dummy.123}}
\@writefile{loe}{\contentsline {proposition}{\numberline {2.34}Proposition}{35}{proposition.2.34}}
\newlabel{prop:cha210:card-n}{{2.34}{35}{}{proposition.2.34}{}}
\@writefile{loe}{\contentsline {proof}{\numberline {\let \autodot \@empty }Proof}{35}{thmt@dummyctr.dummy.125}}
\@writefile{loe}{\contentsline {proposition}{\numberline {2.35}Proposition}{35}{proposition.2.35}}
\newlabel{prop:cha210:iter-1}{{2.35}{35}{}{proposition.2.35}{}}
\@writefile{loe}{\contentsline {proof}{\numberline {\let \autodot \@empty }Proof}{36}{thmt@dummyctr.dummy.127}}
\@writefile{loe}{\contentsline {proposition}{\numberline {2.36}Proposition}{36}{proposition.2.36}}
\newlabel{prop:cha210:iter-2}{{2.36}{36}{}{proposition.2.36}{}}
\@writefile{loe}{\contentsline {proof}{\numberline {\let \autodot \@empty }Proof}{36}{thmt@dummyctr.dummy.129}}
\@writefile{loe}{\contentsline {theorem}{\numberline {2.37}Theorem}{36}{theorem.2.37}}
\newlabel{thm:cha210:sub-dim}{{2.37}{36}{}{theorem.2.37}{}}
\newlabel{thm:cha210:sub-dim:1}{{{{(1)}}}{36}{}{Item.130}{}}
\newlabel{thm:cha210:sub-dim:2}{{{{(2)}}}{36}{}{Item.131}{}}
\@writefile{loe}{\contentsline {proof}{\numberline {\let \autodot \@empty }Proof}{36}{thmt@dummyctr.dummy.131}}
\@writefile{loe}{\contentsline {corollary}{\numberline {2.38}Corollary}{37}{corollary.2.38}}
\@writefile{loe}{\contentsline {proof}{\numberline {\let \autodot \@empty }Proof}{37}{thmt@dummyctr.dummy.133}}
\BKM@entry{id=13,dest={636861707465722E33},srcline={1},srcfile={6368613232302E746578}}{4C696E656172204D617073}
\BKM@entry{id=14,dest={73656374696F6E2E332E31},srcline={4},srcfile={6368613232302E746578}}{46756E64616D656E74616C73}
\@writefile{toc}{\contentsline {chapter}{\numberline {3}Linear Maps}{38}{chapter.3}}
\@writefile{lof}{\addvspace {10\p@ }}
\@writefile{lot}{\addvspace {10\p@ }}
\@writefile{loa}{\addvspace {10\p@ }}
\newlabel{cha:cha220}{{3}{38}{Linear Maps}{chapter.3}{}}
\@writefile{toc}{\contentsline {section}{\numberline {3.1}Fundamentals}{38}{section.3.1}}
\@writefile{loe}{\addvspace {10\p@ }}
\@writefile{loe}{\contentsline {definition}{\numberline {3.1}Definition}{38}{definition.3.1}}
\@writefile{loe}{\contentsline {remark}{\numberline {3.2}Remark}{38}{remark.3.2}}
\@writefile{loe}{\contentsline {proof}{\numberline {\let \autodot \@empty }Proof}{38}{thmt@dummyctr.dummy.136}}
\@writefile{loe}{\contentsline {definition}{\numberline {3.3}Definition}{38}{definition.3.3}}
\@writefile{loe}{\contentsline {proposition}{\numberline {3.4}Proposition}{38}{proposition.3.4}}
\newlabel{prop:cha220:basics}{{3.4}{38}{}{proposition.3.4}{}}
\newlabel{prop:cha220:basics:1}{{{{(1)}}}{38}{}{Item.134}{}}
\newlabel{prop:cha220:basics:2}{{{{(2)}}}{38}{}{Item.135}{}}
\newlabel{prop:cha220:basics:3}{{{{(3)}}}{38}{}{Item.136}{}}
\newlabel{prop:cha220:basics:4}{{{{(4)}}}{38}{}{Item.137}{}}
\newlabel{prop:cha220:basics:5}{{{{(5)}}}{39}{}{Item.138}{}}
\newlabel{prop:cha220:basics:6}{{{{(6)}}}{39}{}{Item.139}{}}
\newlabel{prop:cha220:basics:7}{{{{(7)}}}{39}{}{Item.140}{}}
\newlabel{prop:cha220:basics:8}{{{{(8)}}}{39}{}{Item.141}{}}
\@writefile{loe}{\contentsline {proof}{\numberline {\let \autodot \@empty }Proof}{39}{thmt@dummyctr.dummy.139}}
\BKM@entry{id=15,dest={73656374696F6E2E332E32},srcline={148},srcfile={6368613232302E746578}}{49736F6D6F72706869736D}
\@writefile{toc}{\contentsline {section}{\numberline {3.2}Isomorphism}{40}{section.3.2}}
\@writefile{loe}{\contentsline {definition}{\numberline {3.5}Definition}{40}{definition.3.5}}
\@writefile{loe}{\contentsline {remark}{\numberline {3.6}Remark}{40}{remark.3.6}}
\BKM@entry{id=16,dest={73656374696F6E2E332E33},srcline={211},srcfile={6368613232302E746578}}{46726F6D204D6174726963657320746F204C696E656172204D617073}
\@writefile{loe}{\contentsline {proof}{\numberline {\let \autodot \@empty }Proof}{41}{thmt@dummyctr.dummy.142}}
\@writefile{loe}{\contentsline {definition}{\numberline {3.7}Definition}{41}{definition.3.7}}
\@writefile{loe}{\contentsline {theorem}{\numberline {3.8}Theorem}{41}{theorem.3.8}}
\@writefile{loe}{\contentsline {proof}{\numberline {\let \autodot \@empty }Proof}{41}{thmt@dummyctr.dummy.145}}
\@writefile{toc}{\contentsline {section}{\numberline {3.3}From Matrices to Linear Maps}{41}{section.3.3}}
\@writefile{loe}{\contentsline {definition}{\numberline {3.9}Definition}{41}{definition.3.9}}
\@writefile{loe}{\contentsline {definition}{\numberline {3.10}Definition}{42}{definition.3.10}}
\@writefile{loe}{\contentsline {remark}{\numberline {3.11}Remark}{42}{remark.3.11}}
\newlabel{rem:cha220:diag}{{3.11}{42}{}{remark.3.11}{}}
\@writefile{loe}{\contentsline {proof}{\numberline {\let \autodot \@empty }Proof}{42}{thmt@dummyctr.dummy.149}}
\@writefile{loe}{\contentsline {proposition}{\numberline {3.12}Proposition}{42}{proposition.3.12}}
\newlabel{rem:cha220:rules}{{3.12}{42}{}{proposition.3.12}{}}
\@writefile{loe}{\contentsline {proof}{\numberline {\let \autodot \@empty }Proof}{42}{thmt@dummyctr.dummy.151}}
\BKM@entry{id=17,dest={73656374696F6E2E332E34},srcline={398},srcfile={6368613232302E746578}}{46726F6D204C696E656172204D61707320746F204D61747269636573}
\@writefile{loe}{\contentsline {remark}{\numberline {3.13}Remark}{43}{remark.3.13}}
\@writefile{loe}{\contentsline {proof}{\numberline {\let \autodot \@empty }Proof}{43}{thmt@dummyctr.dummy.153}}
\@writefile{loe}{\contentsline {proposition}{\numberline {3.14}Proposition}{43}{proposition.3.14}}
\newlabel{prop:cha220:Ax-lin}{{3.14}{43}{}{proposition.3.14}{}}
\newlabel{prop:cha220:Ax-lin:1}{{{{(1)}}}{43}{}{Item.158}{}}
\newlabel{prop:cha220:Ax-lin:2}{{{{(2)}}}{43}{}{Item.159}{}}
\newlabel{prop:cha220:Ax-lin:3}{{{{(3)}}}{43}{}{Item.160}{}}
\@writefile{loe}{\contentsline {proof}{\numberline {\let \autodot \@empty }Proof}{43}{thmt@dummyctr.dummy.155}}
\@writefile{loe}{\contentsline {remark}{\numberline {3.15}Remark}{43}{remark.3.15}}
\@writefile{loe}{\contentsline {proof}{\numberline {\let \autodot \@empty }Proof}{43}{thmt@dummyctr.dummy.157}}
\@writefile{toc}{\contentsline {section}{\numberline {3.4}From Linear Maps to Matrices}{44}{section.3.4}}
\@writefile{loe}{\contentsline {proposition}{\numberline {3.16}Proposition}{44}{proposition.3.16}}
\newlabel{prop:cha220:same-on-basis}{{3.16}{44}{}{proposition.3.16}{}}
\@writefile{loe}{\contentsline {proof}{\numberline {\let \autodot \@empty }Proof}{44}{thmt@dummyctr.dummy.159}}
\@writefile{loe}{\contentsline {remark}{\numberline {3.17}Remark}{44}{remark.3.17}}
\@writefile{loe}{\contentsline {proof}{\numberline {\let \autodot \@empty }Proof}{44}{thmt@dummyctr.dummy.161}}
\BKM@entry{id=18,dest={73656374696F6E2E332E35},srcline={509},srcfile={6368613232302E746578}}{44696D656E73696F6E20466F726D756C61}
\@writefile{loe}{\contentsline {example}{\numberline {3.18}Example}{45}{example.3.18}}
\newlabel{ex:cha220:xchange}{{3.18}{45}{}{example.3.18}{}}
\newlabel{eq:cha220:xchange:1}{{3.1}{45}{}{equation.3.4.1}{}}
\@writefile{toc}{\contentsline {section}{\numberline {3.5}Dimension Formula}{45}{section.3.5}}
\@writefile{loe}{\contentsline {definition}{\numberline {3.19}Definition}{45}{definition.3.19}}
\@writefile{loe}{\contentsline {remark}{\numberline {3.20}Remark}{45}{remark.3.20}}
\newlabel{rem:cha22:rank}{{3.20}{45}{}{remark.3.20}{}}
\newlabel{rem:cha22:rank:1}{{{{(1)}}}{45}{}{Item.162}{}}
\newlabel{rem:cha22:rank:2}{{{{(2)}}}{45}{}{Item.163}{}}
\newlabel{rem:cha22:rank:3}{{{{(3)}}}{45}{}{Item.164}{}}
\newlabel{rem:cha22:rank:4}{{{{(4)}}}{45}{}{Item.165}{}}
\@writefile{loe}{\contentsline {proof}{\numberline {\let \autodot \@empty }Proof}{46}{thmt@dummyctr.dummy.165}}
\@writefile{loe}{\contentsline {theorem}{\numberline {3.21}Theorem}{46}{theorem.3.21}}
\newlabel{thm:cha220:rank}{{3.21}{46}{}{theorem.3.21}{}}
\@writefile{loe}{\contentsline {proof}{\numberline {\let \autodot \@empty }Proof}{46}{thmt@dummyctr.dummy.167}}
\newlabel{eq:cha220:rank:claim}{{3.2}{46}{}{equation.3.5.2}{}}
\newlabel{eq:cha220:rank:1}{{3.3}{46}{}{equation.3.5.3}{}}
\@writefile{loe}{\contentsline {definition}{\numberline {3.22}Definition}{47}{definition.3.22}}
\@writefile{loe}{\contentsline {remark}{\numberline {3.23}Remark}{47}{remark.3.23}}
\@writefile{loe}{\contentsline {proof}{\numberline {\let \autodot \@empty }Proof}{47}{thmt@dummyctr.dummy.170}}
\@writefile{loe}{\contentsline {proposition}{\numberline {3.24}Proposition}{48}{proposition.3.24}}
\newlabel{prop:cha220:final-straw:tuples}{{3.24}{48}{}{proposition.3.24}{}}
\@writefile{loe}{\contentsline {proof}{\numberline {\let \autodot \@empty }Proof}{48}{thmt@dummyctr.dummy.172}}
\@writefile{loe}{\contentsline {definition}{\numberline {3.25}Definition}{48}{definition.3.25}}
\@writefile{loe}{\contentsline {remark}{\numberline {3.26}Remark}{48}{remark.3.26}}
\newlabel{rem:cha220:img-rank}{{3.26}{48}{}{remark.3.26}{}}
\@writefile{loe}{\contentsline {proof}{\numberline {\let \autodot \@empty }Proof}{48}{thmt@dummyctr.dummy.175}}
\@writefile{loe}{\contentsline {proposition}{\numberline {3.27}Proposition}{48}{proposition.3.27}}
\newlabel{prop:cha220:cap-nul}{{3.27}{48}{}{proposition.3.27}{}}
\@writefile{loe}{\contentsline {proof}{\numberline {\let \autodot \@empty }Proof}{48}{thmt@dummyctr.dummy.177}}
\@writefile{loe}{\contentsline {theorem}{\numberline {3.28}Theorem\thmtformatoptarg {Dimension Formula}}{48}{theorem.3.28}}
\newlabel{thm:cha220:dimension-formula}{{3.28}{48}{Dimension Formula}{theorem.3.28}{}}
\@writefile{loe}{\contentsline {proof}{\numberline {\let \autodot \@empty }Proof}{48}{thmt@dummyctr.dummy.179}}
\@writefile{loe}{\contentsline {corollary}{\numberline {3.29}Corollary}{49}{corollary.3.29}}
\newlabel{cor:cha220:dimension-formula}{{3.29}{49}{}{corollary.3.29}{}}
\@writefile{loe}{\contentsline {proof}{\numberline {\let \autodot \@empty }Proof}{49}{thmt@dummyctr.dummy.181}}
\@writefile{loe}{\contentsline {proposition}{\numberline {3.30}Proposition}{49}{proposition.3.30}}
\newlabel{prop:cha22:rank-injectiv-surjektiv}{{3.30}{49}{}{proposition.3.30}{}}
\newlabel{prop:cha22:rank-injectiv-surjektiv:1}{{{{(1)}}}{49}{}{Item.166}{}}
\newlabel{prop:cha22:rank-injectiv-surjektiv:2}{{{{(2)}}}{49}{}{Item.167}{}}
\newlabel{prop:cha22:rank-injectiv-surjektiv:3}{{{{(3)}}}{49}{}{Item.168}{}}
\@writefile{loe}{\contentsline {proof}{\numberline {\let \autodot \@empty }Proof}{49}{thmt@dummyctr.dummy.183}}
\BKM@entry{id=19,dest={636861707465722E34},srcline={1},srcfile={6368613233302E746578}}{53797374656D73206F66204C696E656172204571756174696F6E73}
\BKM@entry{id=20,dest={73656374696F6E2E342E31},srcline={4},srcfile={6368613233302E746578}}{46756E64616D656E74616C73}
\@writefile{toc}{\contentsline {chapter}{\numberline {4}Systems of Linear Equations}{50}{chapter.4}}
\@writefile{lof}{\addvspace {10\p@ }}
\@writefile{lot}{\addvspace {10\p@ }}
\@writefile{loa}{\addvspace {10\p@ }}
\newlabel{cha:cha230}{{4}{50}{Systems of Linear Equations}{chapter.4}{}}
\@writefile{toc}{\contentsline {section}{\numberline {4.1}Fundamentals}{50}{section.4.1}}
\@writefile{loe}{\addvspace {10\p@ }}
\@writefile{loe}{\contentsline {definition}{\numberline {4.1}Definition}{50}{definition.4.1}}
\BKM@entry{id=21,dest={73656374696F6E2E342E32},srcline={105},srcfile={6368613233302E746578}}{456C656D656E7461727920526F77204F7065726174696F6E73}
\@writefile{loe}{\contentsline {theorem}{\numberline {4.2}Theorem}{51}{theorem.4.2}}
\@writefile{loe}{\contentsline {proof}{\numberline {\let \autodot \@empty }Proof}{51}{thmt@dummyctr.dummy.186}}
\@writefile{loe}{\contentsline {remark}{\numberline {4.3}Remark}{51}{remark.4.3}}
\newlabel{rem:cha230:rank-equal}{{4.3}{51}{}{remark.4.3}{}}
\@writefile{loe}{\contentsline {proof}{\numberline {\let \autodot \@empty }Proof}{51}{thmt@dummyctr.dummy.188}}
\@writefile{toc}{\contentsline {section}{\numberline {4.2}Elementary Row Operations}{51}{section.4.2}}
\@writefile{loe}{\contentsline {definition}{\numberline {4.4}Definition}{51}{definition.4.4}}
\@writefile{loe}{\contentsline {definition}{\numberline {4.5}Definition}{52}{definition.4.5}}
\@writefile{loe}{\contentsline {proposition}{\numberline {4.6}Proposition}{52}{proposition.4.6}}
\newlabel{prop:cha230:row-op}{{4.6}{52}{}{proposition.4.6}{}}
\newlabel{prop:cha230:row-op:1}{{{{(1)}}}{52}{}{Item.172}{}}
\newlabel{prop:cha230:row-op:2}{{{{(2)}}}{52}{}{Item.173}{}}
\@writefile{loe}{\contentsline {proof}{\numberline {\let \autodot \@empty }Proof}{52}{thmt@dummyctr.dummy.192}}
\BKM@entry{id=22,dest={73656374696F6E2E342E33},srcline={277},srcfile={6368613233302E746578}}{436F6E7365637574697665205265647563656420526F7720456368656C6F6E20466F726D}
\@writefile{loe}{\contentsline {remark}{\numberline {4.7}Remark}{53}{remark.4.7}}
\newlabel{rem:cha230:col-swap}{{4.7}{53}{}{remark.4.7}{}}
\@writefile{loe}{\contentsline {proof}{\numberline {\let \autodot \@empty }Proof}{53}{thmt@dummyctr.dummy.194}}
\@writefile{loe}{\contentsline {proposition}{\numberline {4.8}Proposition}{53}{proposition.4.8}}
\newlabel{prop:cha230:reverse-col-swaps}{{4.8}{53}{}{proposition.4.8}{}}
\newlabel{prop:cha230:reverse-col-swaps:1}{{{{(1)}}}{53}{}{Item.174}{}}
\newlabel{prop:cha230:reverse-col-swaps:2}{{{{(2)}}}{53}{}{Item.175}{}}
\@writefile{loe}{\contentsline {proof}{\numberline {\let \autodot \@empty }Proof}{53}{thmt@dummyctr.dummy.196}}
\@writefile{loe}{\contentsline {remark}{\numberline {4.9}Remark}{53}{remark.4.9}}
\newlabel{rem:cha230:rank-maint}{{4.9}{53}{}{remark.4.9}{}}
\@writefile{loe}{\contentsline {proof}{\numberline {\let \autodot \@empty }Proof}{53}{thmt@dummyctr.dummy.198}}
\@writefile{toc}{\contentsline {section}{\numberline {4.3}Consecutive Reduced Row Echelon Form}{54}{section.4.3}}
\@writefile{loe}{\contentsline {definition}{\numberline {4.10}Definition}{54}{definition.4.10}}
\newlabel{def:cha230:crref}{{4.10}{54}{}{definition.4.10}{}}
\@writefile{loe}{\contentsline {remark}{\numberline {4.11}Remark}{54}{remark.4.11}}
\newlabel{rem:cha230:dim-ker-C}{{4.11}{54}{}{remark.4.11}{}}
\@writefile{loe}{\contentsline {proof}{\numberline {\let \autodot \@empty }Proof}{54}{thmt@dummyctr.dummy.201}}
\@writefile{loe}{\contentsline {proposition}{\numberline {4.12}Proposition}{54}{proposition.4.12}}
\newlabel{prop:cha230:basis-ker}{{4.12}{54}{}{proposition.4.12}{}}
\@writefile{loe}{\contentsline {proof}{\numberline {\let \autodot \@empty }Proof}{54}{thmt@dummyctr.dummy.203}}
\BKM@entry{id=23,dest={73656374696F6E2E342E34},srcline={394},srcfile={6368613233302E746578}}{536F6C76696E6720616E20534C45}
\@writefile{loa}{\contentsline {algocf}{\numberline {1}{\ignorespaces Computing Consecutive Reduced Row Echelon Form\relax }}{55}{algocf.1}}
\newlabel{alg:cha230:crref}{{1}{55}{Consecutive Reduced Row Echelon Form}{algocf.1}{}}
\@writefile{loe}{\contentsline {proposition}{\numberline {4.13}Proposition}{55}{proposition.4.13}}
\@writefile{loe}{\contentsline {proof}{\numberline {\let \autodot \@empty }Proof}{55}{thmt@dummyctr.dummy.205}}
\@writefile{toc}{\contentsline {section}{\numberline {4.4}Solving an SLE}{56}{section.4.4}}
\@writefile{loe}{\contentsline {theorem}{\numberline {4.14}Theorem}{56}{theorem.4.14}}
\newlabel{prop:cha230:solution}{{4.14}{56}{}{theorem.4.14}{}}
\@writefile{loe}{\contentsline {proof}{\numberline {\let \autodot \@empty }Proof}{56}{thmt@dummyctr.dummy.207}}
\@writefile{loe}{\contentsline {example}{\numberline {4.15}Example}{57}{example.4.15}}
\@writefile{loe}{\contentsline {example}{\numberline {4.16}Example}{58}{example.4.16}}
\BKM@entry{id=24,dest={636861707465722E35},srcline={1},srcfile={6368613234302E746578}}{517561647261746963204D61747269636573}
\@writefile{toc}{\contentsline {chapter}{\numberline {5}Quadratic Matrices}{60}{chapter.5}}
\@writefile{lof}{\addvspace {10\p@ }}
\@writefile{lot}{\addvspace {10\p@ }}
\@writefile{loa}{\addvspace {10\p@ }}
\newlabel{cha:cha240}{{5}{60}{Quadratic Matrices}{chapter.5}{}}
\BKM@entry{id=25,dest={706172742E33},srcline={48},srcfile={42617369634D6174682E746578}}{494949205265616C20416E616C79736973}
\@writefile{toc}{\contentsline {part}{III\hspace  {1em}Real Analysis}{61}{part.3}}
\BKM@entry{id=26,dest={636861707465722E36},srcline={1},srcfile={6368613331302E746578}}{436F6E76657267656E636520616E6420436F6E74696E75697479}
\BKM@entry{id=27,dest={73656374696F6E2E362E31},srcline={10},srcfile={6368613331302E746578}}{546F706F6C6F6779}
\newlabel{part:real-analysis}{{III}{62}{Real Analysis}{part.3}{}}
\@writefile{toc}{\contentsline {chapter}{\numberline {6}Convergence and Continuity}{62}{chapter.6}}
\@writefile{lof}{\addvspace {10\p@ }}
\@writefile{lot}{\addvspace {10\p@ }}
\@writefile{loa}{\addvspace {10\p@ }}
\newlabel{cha:cha310}{{6}{62}{Convergence and Continuity}{chapter.6}{}}
\@writefile{toc}{\contentsline {section}{\numberline {6.1}Topology}{62}{section.6.1}}
\@writefile{loe}{\addvspace {10\p@ }}
\@writefile{loe}{\contentsline {definition}{\numberline {6.1}Definition}{62}{definition.6.1}}
\@writefile{loe}{\contentsline {remark}{\numberline {6.2}Remark}{63}{remark.6.2}}
\@writefile{loe}{\contentsline {proof}{\numberline {\let \autodot \@empty }Proof}{63}{thmt@dummyctr.dummy.212}}
\@writefile{loe}{\contentsline {remark}{\numberline {6.3}Remark}{63}{remark.6.3}}
\@writefile{loe}{\contentsline {proof}{\numberline {\let \autodot \@empty }Proof}{63}{thmt@dummyctr.dummy.214}}
\@writefile{loe}{\contentsline {definition}{\numberline {6.4}Definition}{63}{definition.6.4}}
\@writefile{loe}{\contentsline {remark}{\numberline {6.5}Remark}{63}{remark.6.5}}
\newlabel{rem:cha310:abs-metric}{{6.5}{63}{}{remark.6.5}{}}
\@writefile{loe}{\contentsline {proof}{\numberline {\let \autodot \@empty }Proof}{63}{thmt@dummyctr.dummy.217}}
\@writefile{loe}{\contentsline {definition}{\numberline {6.6}Definition}{63}{definition.6.6}}
\newlabel{def:cha310:open}{{6.6}{63}{}{definition.6.6}{}}
\newlabel{def:cha310:open:1}{{{{(1)}}}{63}{}{Item.185}{}}
\newlabel{def:cha310:open:1a}{{{{(2)}}}{63}{}{Item.186}{}}
\newlabel{def:cha310:open:2}{{{{(3)}}}{63}{}{Item.187}{}}
\newlabel{def:cha310:open:3}{{{{(4)}}}{63}{}{Item.188}{}}
\newlabel{def:cha310:open:4}{{{{(5)}}}{64}{}{Item.189}{}}
\@writefile{loe}{\contentsline {remark}{\numberline {6.7}Remark}{64}{remark.6.7}}
\@writefile{loe}{\contentsline {proof}{\numberline {\let \autodot \@empty }Proof}{64}{thmt@dummyctr.dummy.220}}
\@writefile{loe}{\contentsline {remark}{\numberline {6.8}Remark}{64}{remark.6.8}}
\@writefile{loe}{\contentsline {proof}{\numberline {\let \autodot \@empty }Proof}{64}{thmt@dummyctr.dummy.222}}
\@writefile{loe}{\contentsline {remark}{\numberline {6.9}Remark}{64}{remark.6.9}}
\newlabel{rem:cha310:top-rest}{{6.9}{64}{}{remark.6.9}{}}
\@writefile{loe}{\contentsline {proof}{\numberline {\let \autodot \@empty }Proof}{64}{thmt@dummyctr.dummy.224}}
\@writefile{loe}{\contentsline {remark}{\numberline {6.10}Remark}{64}{remark.6.10}}
\newlabel{rem:ch310:clopen}{{6.10}{64}{}{remark.6.10}{}}
\@writefile{loe}{\contentsline {proof}{\numberline {\let \autodot \@empty }Proof}{64}{thmt@dummyctr.dummy.226}}
\@writefile{loe}{\contentsline {proposition}{\numberline {6.11}Proposition}{64}{proposition.6.11}}
\newlabel{prop:cha310:open-closed-op}{{6.11}{64}{}{proposition.6.11}{}}
\BKM@entry{id=28,dest={73656374696F6E2E362E32},srcline={269},srcfile={6368613331302E746578}}{436F6E76657267656E6365}
\@writefile{loe}{\contentsline {proof}{\numberline {\let \autodot \@empty }Proof}{65}{thmt@dummyctr.dummy.228}}
\@writefile{loe}{\contentsline {remark}{\numberline {6.12}Remark}{65}{remark.6.12}}
\newlabel{rem:cha310:int-open-closed}{{6.12}{65}{}{remark.6.12}{}}
\@writefile{loe}{\contentsline {proof}{\numberline {\let \autodot \@empty }Proof}{65}{thmt@dummyctr.dummy.230}}
\@writefile{loe}{\contentsline {remark}{\numberline {6.13}Remark}{65}{remark.6.13}}
\newlabel{rem:cha310:RR-closed}{{6.13}{65}{}{remark.6.13}{}}
\@writefile{loe}{\contentsline {proof}{\numberline {\let \autodot \@empty }Proof}{65}{thmt@dummyctr.dummy.232}}
\@writefile{toc}{\contentsline {section}{\numberline {6.2}Convergence}{66}{section.6.2}}
\@writefile{loe}{\contentsline {definition}{\numberline {6.14}Definition}{66}{definition.6.14}}
\@writefile{loe}{\contentsline {definition}{\numberline {6.15}Definition}{66}{definition.6.15}}
\newlabel{def:cha310:conv}{{6.15}{66}{}{definition.6.15}{}}
\@writefile{loe}{\contentsline {remark}{\numberline {6.16}Remark}{66}{remark.6.16}}
\newlabel{rem:cha310:conv-zero-metric}{{6.16}{66}{}{remark.6.16}{}}
\@writefile{loe}{\contentsline {proof}{\numberline {\let \autodot \@empty }Proof}{66}{thmt@dummyctr.dummy.236}}
\@writefile{loe}{\contentsline {remark}{\numberline {6.17}Remark}{66}{remark.6.17}}
\@writefile{loe}{\contentsline {proof}{\numberline {\let \autodot \@empty }Proof}{66}{thmt@dummyctr.dummy.238}}
\@writefile{loe}{\contentsline {proposition}{\numberline {6.18}Proposition}{67}{proposition.6.18}}
\@writefile{loe}{\contentsline {proof}{\numberline {\let \autodot \@empty }Proof}{67}{thmt@dummyctr.dummy.240}}
\@writefile{loe}{\contentsline {remark}{\numberline {6.19}Remark}{67}{remark.6.19}}
\newlabel{rem:cha310:conv-sub}{{6.19}{67}{}{remark.6.19}{}}
\@writefile{loe}{\contentsline {proof}{\numberline {\let \autodot \@empty }Proof}{67}{thmt@dummyctr.dummy.242}}
\@writefile{loe}{\contentsline {theorem}{\numberline {6.20}Theorem}{67}{theorem.6.20}}
\newlabel{prop:cha310:closed-limit}{{6.20}{67}{}{theorem.6.20}{}}
\@writefile{loe}{\contentsline {proof}{\numberline {\let \autodot \@empty }Proof}{68}{thmt@dummyctr.dummy.244}}
\@writefile{loe}{\contentsline {remark}{\numberline {6.21}Remark}{68}{remark.6.21}}
\newlabel{rem:cha310:RR-CC-same}{{6.21}{68}{}{remark.6.21}{}}
\@writefile{loe}{\contentsline {proof}{\numberline {\let \autodot \@empty }Proof}{68}{thmt@dummyctr.dummy.246}}
\@writefile{loe}{\contentsline {definition}{\numberline {6.22}Definition}{68}{definition.6.22}}
\newlabel{def:cha310:bounded}{{6.22}{68}{}{definition.6.22}{}}
\@writefile{loe}{\contentsline {proposition}{\numberline {6.23}Proposition}{68}{proposition.6.23}}
\newlabel{prop:cha310:conv-bounded}{{6.23}{68}{}{proposition.6.23}{}}
\@writefile{loe}{\contentsline {proof}{\numberline {\let \autodot \@empty }Proof}{69}{thmt@dummyctr.dummy.249}}
\@writefile{loe}{\contentsline {remark}{\numberline {6.24}Remark}{69}{remark.6.24}}
\@writefile{loe}{\contentsline {proof}{\numberline {\let \autodot \@empty }Proof}{69}{thmt@dummyctr.dummy.251}}
\@writefile{loe}{\contentsline {proposition}{\numberline {6.25}Proposition}{69}{proposition.6.25}}
\newlabel{prop:cha310:1/n-q}{{6.25}{69}{}{proposition.6.25}{}}
\@writefile{loe}{\contentsline {proof}{\numberline {\let \autodot \@empty }Proof}{69}{thmt@dummyctr.dummy.253}}
\@writefile{loe}{\contentsline {theorem}{\numberline {6.26}Theorem}{70}{theorem.6.26}}
\newlabel{prop:cha310:conv-fact-sum}{{6.26}{70}{}{theorem.6.26}{}}
\@writefile{loe}{\contentsline {proof}{\numberline {\let \autodot \@empty }Proof}{70}{thmt@dummyctr.dummy.255}}
\@writefile{loe}{\contentsline {remark}{\numberline {6.27}Remark}{70}{remark.6.27}}
\newlabel{rem:cha310:conv-zero-CC}{{6.27}{70}{}{remark.6.27}{}}
\@writefile{loe}{\contentsline {proof}{\numberline {\let \autodot \@empty }Proof}{71}{thmt@dummyctr.dummy.257}}
\@writefile{loe}{\contentsline {remark}{\numberline {6.28}Remark}{71}{remark.6.28}}
\newlabel{prop:cha310:conv-Re-Im}{{6.28}{71}{}{remark.6.28}{}}
\@writefile{loe}{\contentsline {proof}{\numberline {\let \autodot \@empty }Proof}{71}{thmt@dummyctr.dummy.259}}
\@writefile{loe}{\contentsline {theorem}{\numberline {6.29}Theorem}{71}{theorem.6.29}}
\newlabel{prop:cha310:conv-prod-quot}{{6.29}{71}{}{theorem.6.29}{}}
\@writefile{loe}{\contentsline {proof}{\numberline {\let \autodot \@empty }Proof}{71}{thmt@dummyctr.dummy.261}}
\@writefile{loe}{\contentsline {remark}{\numberline {6.30}Remark}{71}{remark.6.30}}
\newlabel{rem:cha310:zero-bounded}{{6.30}{71}{}{remark.6.30}{}}
\@writefile{loe}{\contentsline {proof}{\numberline {\let \autodot \@empty }Proof}{72}{thmt@dummyctr.dummy.263}}
\@writefile{loe}{\contentsline {proposition}{\numberline {6.31}Proposition}{72}{proposition.6.31}}
\@writefile{loe}{\contentsline {proof}{\numberline {\let \autodot \@empty }Proof}{72}{thmt@dummyctr.dummy.265}}
\@writefile{loe}{\contentsline {remark}{\numberline {6.32}Remark}{72}{remark.6.32}}
\@writefile{loe}{\contentsline {proof}{\numberline {\let \autodot \@empty }Proof}{72}{thmt@dummyctr.dummy.267}}
\BKM@entry{id=29,dest={73656374696F6E2E362E33},srcline={778},srcfile={6368613331302E746578}}{4D6F6E6F746F6E6963697479}
\@writefile{toc}{\contentsline {section}{\numberline {6.3}Monotonicity}{73}{section.6.3}}
\@writefile{loe}{\contentsline {proposition}{\numberline {6.33}Proposition}{73}{proposition.6.33}}
\newlabel{prop:cha310:bounded-conv}{{6.33}{73}{}{proposition.6.33}{}}
\@writefile{loe}{\contentsline {proof}{\numberline {\let \autodot \@empty }Proof}{73}{thmt@dummyctr.dummy.269}}
\@writefile{loe}{\contentsline {proposition}{\numberline {6.34}Proposition}{73}{proposition.6.34}}
\newlabel{prop:cha310:limit-monotone}{{6.34}{73}{}{proposition.6.34}{}}
\@writefile{loe}{\contentsline {proof}{\numberline {\let \autodot \@empty }Proof}{73}{thmt@dummyctr.dummy.271}}
\@writefile{loe}{\contentsline {remark}{\numberline {6.35}Remark}{73}{remark.6.35}}
\@writefile{loe}{\contentsline {proof}{\numberline {\let \autodot \@empty }Proof}{73}{thmt@dummyctr.dummy.273}}
\@writefile{loe}{\contentsline {remark}{\numberline {6.36}Remark}{73}{remark.6.36}}
\newlabel{rem:cha310:lim-less-sup}{{6.36}{73}{}{remark.6.36}{}}
\@writefile{loe}{\contentsline {proof}{\numberline {\let \autodot \@empty }Proof}{73}{thmt@dummyctr.dummy.275}}
\BKM@entry{id=30,dest={73656374696F6E2E362E34},srcline={860},srcfile={6368613331302E746578}}{436F6E74696E75697479}
\@writefile{loe}{\contentsline {proposition}{\numberline {6.37}Proposition\thmtformatoptarg {Sandwich Lemma}}{74}{proposition.6.37}}
\newlabel{prop:cha310:sandwich}{{6.37}{74}{Sandwich Lemma}{proposition.6.37}{}}
\@writefile{loe}{\contentsline {proof}{\numberline {\let \autodot \@empty }Proof}{74}{thmt@dummyctr.dummy.277}}
\@writefile{toc}{\contentsline {section}{\numberline {6.4}Continuity}{74}{section.6.4}}
\@writefile{loe}{\contentsline {definition}{\numberline {6.38}Definition}{74}{definition.6.38}}
\@writefile{loe}{\contentsline {remark}{\numberline {6.39}Remark}{75}{remark.6.39}}
\newlabel{rem:cha310:simple-functions-cont}{{6.39}{75}{}{remark.6.39}{}}
\@writefile{loe}{\contentsline {proof}{\numberline {\let \autodot \@empty }Proof}{75}{thmt@dummyctr.dummy.280}}
\@writefile{loe}{\contentsline {remark}{\numberline {6.40}Remark}{75}{remark.6.40}}
\newlabel{rem:cha310:preimg}{{6.40}{75}{}{remark.6.40}{}}
\@writefile{loe}{\contentsline {proof}{\numberline {\let \autodot \@empty }Proof}{75}{thmt@dummyctr.dummy.282}}
\@writefile{loe}{\contentsline {theorem}{\numberline {6.41}Theorem}{75}{theorem.6.41}}
\newlabel{prop:cha310:cont-pre}{{6.41}{75}{}{theorem.6.41}{}}
\newlabel{prop:cha310:cont-pre:1}{{{{(1)}}}{75}{}{Item.242}{}}
\newlabel{prop:cha310:cont-pre:2}{{{{(2)}}}{75}{}{Item.243}{}}
\newlabel{prop:cha310:cont-pre:3}{{{{(3)}}}{75}{}{Item.244}{}}
\@writefile{loe}{\contentsline {proof}{\numberline {\let \autodot \@empty }Proof}{75}{thmt@dummyctr.dummy.284}}
\@writefile{loe}{\contentsline {theorem}{\numberline {6.42}Theorem}{75}{theorem.6.42}}
\newlabel{prop:cha310:cont-seq}{{6.42}{75}{}{theorem.6.42}{}}
\newlabel{prop:cha310:cont-seq:1}{{{{(1)}}}{76}{}{Item.245}{}}
\newlabel{prop:cha310:cont-seq:2}{{{{(2)}}}{76}{}{Item.246}{}}
\@writefile{loe}{\contentsline {proof}{\numberline {\let \autodot \@empty }Proof}{76}{thmt@dummyctr.dummy.286}}
\@writefile{loe}{\contentsline {remark}{\numberline {6.43}Remark}{76}{remark.6.43}}
\@writefile{loe}{\contentsline {proof}{\numberline {\let \autodot \@empty }Proof}{76}{thmt@dummyctr.dummy.288}}
\@writefile{loe}{\contentsline {proposition}{\numberline {6.44}Proposition}{76}{proposition.6.44}}
\@writefile{loe}{\contentsline {proof}{\numberline {\let \autodot \@empty }Proof}{76}{thmt@dummyctr.dummy.290}}
\@writefile{loe}{\contentsline {remark}{\numberline {6.45}Remark}{76}{remark.6.45}}
\@writefile{loe}{\contentsline {proof}{\numberline {\let \autodot \@empty }Proof}{76}{thmt@dummyctr.dummy.292}}
\@writefile{loe}{\contentsline {proposition}{\numberline {6.46}Proposition}{76}{proposition.6.46}}
\newlabel{prop:cha310:cont-comp}{{6.46}{76}{}{proposition.6.46}{}}
\@writefile{loe}{\contentsline {proof}{\numberline {\let \autodot \@empty }Proof}{76}{thmt@dummyctr.dummy.294}}
\@writefile{loe}{\contentsline {proposition}{\numberline {6.47}Proposition}{77}{proposition.6.47}}
\newlabel{prop:cha310:cont-fact-sum}{{6.47}{77}{}{proposition.6.47}{}}
\@writefile{loe}{\contentsline {proof}{\numberline {\let \autodot \@empty }Proof}{77}{thmt@dummyctr.dummy.296}}
\@writefile{loe}{\contentsline {proposition}{\numberline {6.48}Proposition}{77}{proposition.6.48}}
\newlabel{prop:cha310:cont-prod-quot}{{6.48}{77}{}{proposition.6.48}{}}
\@writefile{loe}{\contentsline {proof}{\numberline {\let \autodot \@empty }Proof}{77}{thmt@dummyctr.dummy.298}}
\@writefile{loe}{\contentsline {definition}{\numberline {6.49}Definition}{77}{definition.6.49}}
\@writefile{loe}{\contentsline {proposition}{\numberline {6.50}Proposition}{77}{proposition.6.50}}
\@writefile{loe}{\contentsline {proof}{\numberline {\let \autodot \@empty }Proof}{77}{thmt@dummyctr.dummy.301}}
\@writefile{loe}{\contentsline {definition}{\numberline {6.51}Definition}{78}{definition.6.51}}
\@writefile{loe}{\contentsline {theorem}{\numberline {6.52}Theorem}{78}{theorem.6.52}}
\newlabel{thm:cha310:inv-cont}{{6.52}{78}{}{theorem.6.52}{}}
\@writefile{loe}{\contentsline {proof}{\numberline {\let \autodot \@empty }Proof}{78}{thmt@dummyctr.dummy.304}}
\BKM@entry{id=31,dest={73656374696F6E2E362E35},srcline={1220},srcfile={6368613331302E746578}}{436F6D706163746E657373}
\@writefile{loe}{\contentsline {corollary}{\numberline {6.53}Corollary}{79}{corollary.6.53}}
\newlabel{cor:cha310:inv-cont}{{6.53}{79}{}{corollary.6.53}{}}
\@writefile{loe}{\contentsline {proof}{\numberline {\let \autodot \@empty }Proof}{79}{thmt@dummyctr.dummy.306}}
\@writefile{toc}{\contentsline {section}{\numberline {6.5}Compactness}{79}{section.6.5}}
\@writefile{loe}{\contentsline {definition}{\numberline {6.54}Definition}{79}{definition.6.54}}
\@writefile{loe}{\contentsline {proposition}{\numberline {6.55}Proposition}{79}{proposition.6.55}}
\newlabel{rem:cha310:conv-subseq}{{6.55}{79}{}{proposition.6.55}{}}
\@writefile{loe}{\contentsline {proof}{\numberline {\let \autodot \@empty }Proof}{79}{thmt@dummyctr.dummy.309}}
\@writefile{loe}{\contentsline {definition}{\numberline {6.56}Definition}{79}{definition.6.56}}
\@writefile{loe}{\contentsline {remark}{\numberline {6.57}Remark}{80}{remark.6.57}}
\@writefile{loe}{\contentsline {proof}{\numberline {\let \autodot \@empty }Proof}{80}{thmt@dummyctr.dummy.312}}
\@writefile{loe}{\contentsline {theorem}{\numberline {6.58}Theorem}{80}{theorem.6.58}}
\newlabel{thm:cha310:compact-map}{{6.58}{80}{}{theorem.6.58}{}}
\@writefile{loe}{\contentsline {proof}{\numberline {\let \autodot \@empty }Proof}{80}{thmt@dummyctr.dummy.314}}
\@writefile{loe}{\contentsline {proposition}{\numberline {6.59}Proposition}{80}{proposition.6.59}}
\newlabel{prop:cha310:mon-sub}{{6.59}{80}{}{proposition.6.59}{}}
\@writefile{loe}{\contentsline {proof}{\numberline {\let \autodot \@empty }Proof}{80}{thmt@dummyctr.dummy.316}}
\@writefile{loe}{\contentsline {theorem}{\numberline {6.60}Theorem\thmtformatoptarg {Bolzano-Weierstra\IeC {\ss }}}{80}{theorem.6.60}}
\newlabel{thm:cha310:bolzano-weierstrass}{{6.60}{80}{Bolzano-Weierstraß}{theorem.6.60}{}}
\@writefile{loe}{\contentsline {proof}{\numberline {\let \autodot \@empty }Proof}{80}{thmt@dummyctr.dummy.318}}
\@writefile{loe}{\contentsline {corollary}{\numberline {6.61}Corollary}{80}{corollary.6.61}}
\newlabel{cor:cha310:bolzano-weierstrass}{{6.61}{80}{}{corollary.6.61}{}}
\@writefile{loe}{\contentsline {proof}{\numberline {\let \autodot \@empty }Proof}{81}{thmt@dummyctr.dummy.320}}
\@writefile{loe}{\contentsline {theorem}{\numberline {6.62}Theorem}{81}{theorem.6.62}}
\newlabel{prop:cha310:compact-closed-bounded}{{6.62}{81}{}{theorem.6.62}{}}
\@writefile{loe}{\contentsline {proof}{\numberline {\let \autodot \@empty }Proof}{81}{thmt@dummyctr.dummy.322}}
\@writefile{loe}{\contentsline {remark}{\numberline {6.63}Remark}{81}{remark.6.63}}
\newlabel{rem:cha310:sup-seq}{{6.63}{81}{}{remark.6.63}{}}
\@writefile{loe}{\contentsline {proof}{\numberline {\let \autodot \@empty }Proof}{81}{thmt@dummyctr.dummy.324}}
\@writefile{loe}{\contentsline {remark}{\numberline {6.64}Remark}{81}{remark.6.64}}
\newlabel{rem:cha310:bounded-closed-minmax}{{6.64}{81}{}{remark.6.64}{}}
\@writefile{loe}{\contentsline {proof}{\numberline {\let \autodot \@empty }Proof}{81}{thmt@dummyctr.dummy.326}}
\@writefile{loe}{\contentsline {remark}{\numberline {6.65}Remark}{81}{remark.6.65}}
\newlabel{rem:cha310:compact-minmax}{{6.65}{81}{}{remark.6.65}{}}
\@writefile{loe}{\contentsline {proof}{\numberline {\let \autodot \@empty }Proof}{82}{thmt@dummyctr.dummy.328}}
\@writefile{loe}{\contentsline {theorem}{\numberline {6.66}Theorem}{82}{theorem.6.66}}
\newlabel{thm:cha310:cont-min-max}{{6.66}{82}{}{theorem.6.66}{}}
\@writefile{loe}{\contentsline {proof}{\numberline {\let \autodot \@empty }Proof}{82}{thmt@dummyctr.dummy.330}}
\@writefile{loe}{\contentsline {theorem}{\numberline {6.67}Theorem\thmtformatoptarg {Intermediate Value Theorem}}{82}{theorem.6.67}}
\@writefile{loe}{\contentsline {proof}{\numberline {\let \autodot \@empty }Proof}{82}{thmt@dummyctr.dummy.332}}
\@writefile{loe}{\contentsline {corollary}{\numberline {6.68}Corollary}{82}{corollary.6.68}}
\newlabel{cor:cha310:int-int}{{6.68}{82}{}{corollary.6.68}{}}
\@writefile{loe}{\contentsline {proof}{\numberline {\let \autodot \@empty }Proof}{82}{thmt@dummyctr.dummy.334}}
\BKM@entry{id=32,dest={73656374696F6E2E362E36},srcline={1532},srcfile={6368613331302E746578}}{4361756368792053657175656E636573}
\@writefile{toc}{\contentsline {section}{\numberline {6.6}Cauchy Sequences}{83}{section.6.6}}
\@writefile{loe}{\contentsline {definition}{\numberline {6.69}Definition}{83}{definition.6.69}}
\@writefile{loe}{\contentsline {remark}{\numberline {6.70}Remark}{83}{remark.6.70}}
\newlabel{prop:cha310:cauchy-conv}{{6.70}{83}{}{remark.6.70}{}}
\@writefile{loe}{\contentsline {proof}{\numberline {\let \autodot \@empty }Proof}{83}{thmt@dummyctr.dummy.337}}
\@writefile{loe}{\contentsline {theorem}{\numberline {6.71}Theorem}{83}{theorem.6.71}}
\newlabel{thm:cha310:cauchy-conv}{{6.71}{83}{}{theorem.6.71}{}}
\@writefile{loe}{\contentsline {proof}{\numberline {\let \autodot \@empty }Proof}{83}{thmt@dummyctr.dummy.339}}
\BKM@entry{id=33,dest={73656374696F6E2E362E37},srcline={1606},srcfile={6368613331302E746578}}{446976657267656E742053657175656E636573}
\@writefile{loe}{\contentsline {corollary}{\numberline {6.72}Corollary}{84}{corollary.6.72}}
\newlabel{cor:cha310:cauchy-conv}{{6.72}{84}{}{corollary.6.72}{}}
\@writefile{loe}{\contentsline {proof}{\numberline {\let \autodot \@empty }Proof}{84}{thmt@dummyctr.dummy.341}}
\@writefile{toc}{\contentsline {section}{\numberline {6.7}Divergent Sequences}{84}{section.6.7}}
\@writefile{loe}{\contentsline {definition}{\numberline {6.73}Definition}{84}{definition.6.73}}
\@writefile{loe}{\contentsline {remark}{\numberline {6.74}Remark}{84}{remark.6.74}}
\@writefile{loe}{\contentsline {proof}{\numberline {\let \autodot \@empty }Proof}{84}{thmt@dummyctr.dummy.344}}
\newlabel{item:cha310:div:1}{{{{(1)}}}{84}{Divergent Sequences}{Item.261}{}}
\newlabel{item:cha310:div:2}{{{{(2)}}}{84}{Divergent Sequences}{Item.262}{}}
\newlabel{item:cha310:div:3}{{{{(3)}}}{84}{Divergent Sequences}{Item.263}{}}
\newlabel{item:cha310:div:4}{{{{(4)}}}{84}{Divergent Sequences}{Item.264}{}}
\@writefile{loe}{\contentsline {remark}{\numberline {6.75}Remark}{85}{remark.6.75}}
\newlabel{rem:cha310:infty-alpha}{{6.75}{85}{}{remark.6.75}{}}
\newlabel{rem:cha310:infty-alpha:1}{{{{(1)}}}{85}{}{Item.265}{}}
\newlabel{rem:cha310:infty-alpha:2}{{{{(2)}}}{85}{}{Item.266}{}}
\newlabel{rem:cha310:infty-alpha:3}{{{{(3)}}}{85}{}{Item.267}{}}
\newlabel{rem:cha310:infty-alpha:4}{{{{(4)}}}{85}{}{Item.268}{}}
\newlabel{rem:cha310:infty-alpha:5}{{{{(5)}}}{85}{}{Item.269}{}}
\newlabel{rem:cha310:infty-alpha:6}{{{{(6)}}}{85}{}{Item.270}{}}
\@writefile{loe}{\contentsline {proof}{\numberline {\let \autodot \@empty }Proof}{85}{thmt@dummyctr.dummy.346}}
\@writefile{loe}{\contentsline {remark}{\numberline {6.76}Remark}{85}{remark.6.76}}
\newlabel{rem:cha310:1/infty}{{6.76}{85}{}{remark.6.76}{}}
\@writefile{loe}{\contentsline {proof}{\numberline {\let \autodot \@empty }Proof}{85}{thmt@dummyctr.dummy.348}}
\@writefile{loe}{\contentsline {remark}{\numberline {6.77}Remark}{86}{remark.6.77}}
\@writefile{loe}{\contentsline {proof}{\numberline {\let \autodot \@empty }Proof}{86}{thmt@dummyctr.dummy.350}}
\@writefile{loe}{\contentsline {definition}{\numberline {6.78}Definition}{86}{definition.6.78}}
\@writefile{loe}{\contentsline {proposition}{\numberline {6.79}Proposition}{86}{proposition.6.79}}
\newlabel{prop:cha310:cp-closed}{{6.79}{86}{}{proposition.6.79}{}}
\@writefile{loe}{\contentsline {proof}{\numberline {\let \autodot \@empty }Proof}{86}{thmt@dummyctr.dummy.353}}
\@writefile{loe}{\contentsline {remark}{\numberline {6.80}Remark}{86}{remark.6.80}}
\@writefile{loe}{\contentsline {proof}{\numberline {\let \autodot \@empty }Proof}{86}{thmt@dummyctr.dummy.355}}
\@writefile{loe}{\contentsline {remark}{\numberline {6.81}Remark}{86}{remark.6.81}}
\@writefile{loe}{\contentsline {proof}{\numberline {\let \autodot \@empty }Proof}{86}{thmt@dummyctr.dummy.357}}
\@writefile{loe}{\contentsline {definition}{\numberline {6.82}Definition}{87}{definition.6.82}}
\@writefile{loe}{\contentsline {remark}{\numberline {6.83}Remark}{87}{remark.6.83}}
\@writefile{loe}{\contentsline {proof}{\numberline {\let \autodot \@empty }Proof}{87}{thmt@dummyctr.dummy.360}}
\@writefile{loe}{\contentsline {proposition}{\numberline {6.84}Proposition}{87}{proposition.6.84}}
\newlabel{prop:cha310:limsup-infty}{{6.84}{87}{}{proposition.6.84}{}}
\newlabel{prop:cha310:limsup-infty:1}{{{{(1)}}}{87}{}{Item.275}{}}
\newlabel{prop:cha310:limsup-infty:2}{{{{(2)}}}{87}{}{Item.276}{}}
\newlabel{prop:cha310:limsup-infty:3}{{{{(3)}}}{87}{}{Item.277}{}}
\newlabel{prop:cha310:limsup-infty:4}{{{{(4)}}}{87}{}{Item.278}{}}
\@writefile{loe}{\contentsline {proof}{\numberline {\let \autodot \@empty }Proof}{87}{thmt@dummyctr.dummy.362}}
\@writefile{loe}{\contentsline {proposition}{\numberline {6.85}Proposition}{87}{proposition.6.85}}
\@writefile{loe}{\contentsline {proof}{\numberline {\let \autodot \@empty }Proof}{88}{thmt@dummyctr.dummy.364}}
\@writefile{loe}{\contentsline {proposition}{\numberline {6.86}Proposition}{88}{proposition.6.86}}
\newlabel{prop:cha310:limsup-alpha}{{6.86}{88}{}{proposition.6.86}{}}
\@writefile{loe}{\contentsline {proof}{\numberline {\let \autodot \@empty }Proof}{88}{thmt@dummyctr.dummy.366}}
\@writefile{loe}{\contentsline {proposition}{\numberline {6.87}Proposition}{88}{proposition.6.87}}
\newlabel{prop:cha310:limsup-q}{{6.87}{88}{}{proposition.6.87}{}}
\newlabel{prop:cha310:limsup-q:1}{{{{(1)}}}{88}{}{Item.285}{}}
\newlabel{prop:cha310:limsup-q:2}{{{{(2)}}}{88}{}{Item.286}{}}
\newlabel{prop:cha310:limsup-q:3}{{{{(3)}}}{88}{}{Item.287}{}}
\@writefile{loe}{\contentsline {proof}{\numberline {\let \autodot \@empty }Proof}{88}{thmt@dummyctr.dummy.368}}
\@writefile{loe}{\contentsline {proposition}{\numberline {6.88}Proposition}{89}{proposition.6.88}}
\newlabel{prop:cha310:limsupinf-over}{{6.88}{89}{}{proposition.6.88}{}}
\@writefile{loe}{\contentsline {proof}{\numberline {\let \autodot \@empty }Proof}{89}{thmt@dummyctr.dummy.370}}
\BKM@entry{id=34,dest={636861707465722E37},srcline={1},srcfile={6368613332302E746578}}{536572696573}
\BKM@entry{id=35,dest={73656374696F6E2E372E31},srcline={4},srcfile={6368613332302E746578}}{4D6F7265206F6E2053657175656E636573}
\@writefile{toc}{\contentsline {chapter}{\numberline {7}Series}{90}{chapter.7}}
\@writefile{lof}{\addvspace {10\p@ }}
\@writefile{lot}{\addvspace {10\p@ }}
\@writefile{loa}{\addvspace {10\p@ }}
\newlabel{cha:cha320}{{7}{90}{Series}{chapter.7}{}}
\@writefile{toc}{\contentsline {section}{\numberline {7.1}More on Sequences}{90}{section.7.1}}
\@writefile{loe}{\addvspace {10\p@ }}
\@writefile{loe}{\contentsline {definition}{\numberline {7.1}Definition}{90}{definition.7.1}}
\@writefile{loe}{\contentsline {definition}{\numberline {7.2}Definition}{90}{definition.7.2}}
\newlabel{def:cha320:def-conv}{{7.2}{90}{}{definition.7.2}{}}
\newlabel{eq:cha320:def-conv}{{7.1}{90}{}{equation.7.1.1}{}}
\BKM@entry{id=36,dest={73656374696F6E2E372E32},srcline={103},srcfile={6368613332302E746578}}{46756E64616D656E74616C73206F6E20536572696573}
\@writefile{loe}{\contentsline {definition}{\numberline {7.3}Definition}{91}{definition.7.3}}
\@writefile{loe}{\contentsline {remark}{\numberline {7.4}Remark}{91}{remark.7.4}}
\@writefile{loe}{\contentsline {proof}{\numberline {\let \autodot \@empty }Proof}{91}{thmt@dummyctr.dummy.375}}
\@writefile{loe}{\contentsline {remark}{\numberline {7.5}Remark}{91}{remark.7.5}}
\newlabel{rem:cha320:rest}{{7.5}{91}{}{remark.7.5}{}}
\@writefile{loe}{\contentsline {proof}{\numberline {\let \autodot \@empty }Proof}{91}{thmt@dummyctr.dummy.377}}
\@writefile{toc}{\contentsline {section}{\numberline {7.2}Fundamentals on Series}{91}{section.7.2}}
\@writefile{loe}{\contentsline {definition}{\numberline {7.6}Definition}{92}{definition.7.6}}
\@writefile{loe}{\contentsline {remark}{\numberline {7.7}Remark}{92}{remark.7.7}}
\@writefile{loe}{\contentsline {proof}{\numberline {\let \autodot \@empty }Proof}{92}{thmt@dummyctr.dummy.380}}
\@writefile{loe}{\contentsline {remark}{\numberline {7.8}Remark}{92}{remark.7.8}}
\newlabel{rem:cha320:starting-index}{{7.8}{92}{}{remark.7.8}{}}
\@writefile{loe}{\contentsline {proof}{\numberline {\let \autodot \@empty }Proof}{92}{thmt@dummyctr.dummy.382}}
\@writefile{loe}{\contentsline {remark}{\numberline {7.9}Remark}{92}{remark.7.9}}
\newlabel{rem:cha320:fact-sum}{{7.9}{92}{}{remark.7.9}{}}
\@writefile{loe}{\contentsline {proof}{\numberline {\let \autodot \@empty }Proof}{93}{thmt@dummyctr.dummy.384}}
\@writefile{loe}{\contentsline {proposition}{\numberline {7.10}Proposition\thmtformatoptarg {Geometric Series}}{93}{proposition.7.10}}
\newlabel{prop:cha320:geom}{{7.10}{93}{Geometric Series}{proposition.7.10}{}}
\@writefile{loe}{\contentsline {proof}{\numberline {\let \autodot \@empty }Proof}{93}{thmt@dummyctr.dummy.386}}
\@writefile{loe}{\contentsline {remark}{\numberline {7.11}Remark}{94}{remark.7.11}}
\newlabel{rem:cha320:infty}{{7.11}{94}{}{remark.7.11}{}}
\@writefile{loe}{\contentsline {proof}{\numberline {\let \autodot \@empty }Proof}{94}{thmt@dummyctr.dummy.388}}
\@writefile{loe}{\contentsline {proposition}{\numberline {7.12}Proposition\thmtformatoptarg {Cauchy Criterion}}{94}{proposition.7.12}}
\@writefile{loe}{\contentsline {proof}{\numberline {\let \autodot \@empty }Proof}{94}{thmt@dummyctr.dummy.390}}
\@writefile{loe}{\contentsline {proposition}{\numberline {7.13}Proposition}{94}{proposition.7.13}}
\newlabel{prop:cha320:lim0}{{7.13}{94}{}{proposition.7.13}{}}
\@writefile{loe}{\contentsline {proof}{\numberline {\let \autodot \@empty }Proof}{94}{thmt@dummyctr.dummy.392}}
\@writefile{loe}{\contentsline {theorem}{\numberline {7.14}Theorem\thmtformatoptarg {Leibniz Criterion}}{94}{theorem.7.14}}
\@writefile{loe}{\contentsline {proof}{\numberline {\let \autodot \@empty }Proof}{94}{thmt@dummyctr.dummy.394}}
\@writefile{loe}{\contentsline {corollary}{\numberline {7.15}Corollary}{95}{corollary.7.15}}
\newlabel{cor:cha320:leibniz}{{7.15}{95}{}{corollary.7.15}{}}
\@writefile{loe}{\contentsline {proof}{\numberline {\let \autodot \@empty }Proof}{95}{thmt@dummyctr.dummy.396}}
\BKM@entry{id=37,dest={73656374696F6E2E372E33},srcline={370},srcfile={6368613332302E746578}}{4162736F6C75746520436F6E76657267656E6365}
\@writefile{toc}{\contentsline {section}{\numberline {7.3}Absolute Convergence}{96}{section.7.3}}
\@writefile{loe}{\contentsline {definition}{\numberline {7.16}Definition}{96}{definition.7.16}}
\@writefile{loe}{\contentsline {remark}{\numberline {7.17}Remark}{96}{remark.7.17}}
\@writefile{loe}{\contentsline {proof}{\numberline {\let \autodot \@empty }Proof}{96}{thmt@dummyctr.dummy.399}}
\@writefile{loe}{\contentsline {definition}{\numberline {7.18}Definition}{96}{definition.7.18}}
\@writefile{loe}{\contentsline {theorem}{\numberline {7.19}Theorem}{96}{theorem.7.19}}
\newlabel{thm:cha320:rearr-conv}{{7.19}{96}{}{theorem.7.19}{}}
\@writefile{loe}{\contentsline {proof}{\numberline {\let \autodot \@empty }Proof}{96}{thmt@dummyctr.dummy.402}}
\@writefile{loe}{\contentsline {definition}{\numberline {7.20}Definition}{97}{definition.7.20}}
\newlabel{def:cha320:cauchy-prod}{{7.20}{97}{}{definition.7.20}{}}
\@writefile{loe}{\contentsline {theorem}{\numberline {7.21}Theorem}{97}{theorem.7.21}}
\@writefile{loe}{\contentsline {proof}{\numberline {\let \autodot \@empty }Proof}{97}{thmt@dummyctr.dummy.405}}
\newlabel{eq:cha320:cauchy-prod}{{7.2}{98}{Absolute Convergence}{equation.7.3.2}{}}
\@writefile{loe}{\contentsline {proposition}{\numberline {7.22}Proposition}{98}{proposition.7.22}}
\newlabel{prop:cha320:comparison}{{7.22}{98}{}{proposition.7.22}{}}
\newlabel{prop:cha320:comparison:1}{{{{(1)}}}{98}{}{Item.313}{}}
\newlabel{prop:cha320:comparison:2}{{{{(2)}}}{98}{}{Item.314}{}}
\@writefile{loe}{\contentsline {proof}{\numberline {\let \autodot \@empty }Proof}{98}{thmt@dummyctr.dummy.407}}
\@writefile{loe}{\contentsline {proposition}{\numberline {7.23}Proposition}{98}{proposition.7.23}}
\newlabel{prop:cha320:root}{{7.23}{98}{}{proposition.7.23}{}}
\BKM@entry{id=38,dest={73656374696F6E2E372E34},srcline={604},srcfile={6368613332302E746578}}{506F77657220536572696573}
\@writefile{loe}{\contentsline {proof}{\numberline {\let \autodot \@empty }Proof}{99}{thmt@dummyctr.dummy.409}}
\@writefile{loe}{\contentsline {proposition}{\numberline {7.24}Proposition}{99}{proposition.7.24}}
\newlabel{prop:cha320:quot}{{7.24}{99}{}{proposition.7.24}{}}
\@writefile{loe}{\contentsline {proof}{\numberline {\let \autodot \@empty }Proof}{99}{thmt@dummyctr.dummy.411}}
\@writefile{toc}{\contentsline {section}{\numberline {7.4}Power Series}{99}{section.7.4}}
\@writefile{loe}{\contentsline {definition}{\numberline {7.25}Definition}{99}{definition.7.25}}
\@writefile{loe}{\contentsline {theorem}{\numberline {7.26}Theorem}{99}{theorem.7.26}}
\@writefile{loe}{\contentsline {proof}{\numberline {\let \autodot \@empty }Proof}{100}{thmt@dummyctr.dummy.414}}
\@writefile{loe}{\contentsline {remark}{\numberline {7.27}Remark}{100}{remark.7.27}}
\newlabel{rem:cha320:is-radius}{{7.27}{100}{}{remark.7.27}{}}
\@writefile{loe}{\contentsline {proof}{\numberline {\let \autodot \@empty }Proof}{100}{thmt@dummyctr.dummy.416}}
\@writefile{loe}{\contentsline {proposition}{\numberline {7.28}Proposition}{100}{proposition.7.28}}
\newlabel{prop:cha320:quot-radius}{{7.28}{100}{}{proposition.7.28}{}}
\@writefile{loe}{\contentsline {proof}{\numberline {\let \autodot \@empty }Proof}{100}{thmt@dummyctr.dummy.418}}
\BKM@entry{id=39,dest={73656374696F6E2E372E35},srcline={729},srcfile={6368613332302E746578}}{4578706F6E656E7469616C2046756E6374696F6E}
\@writefile{toc}{\contentsline {section}{\numberline {7.5}Exponential Function}{101}{section.7.5}}
\newlabel{sec:cha320:exp}{{7.5}{101}{Exponential Function}{section.7.5}{}}
\@writefile{loe}{\contentsline {theorem}{\numberline {7.29}Theorem}{101}{theorem.7.29}}
\@writefile{loe}{\contentsline {proof}{\numberline {\let \autodot \@empty }Proof}{101}{thmt@dummyctr.dummy.420}}
\@writefile{loe}{\contentsline {definition}{\numberline {7.30}Definition}{101}{definition.7.30}}
\@writefile{loe}{\contentsline {theorem}{\numberline {7.31}Theorem\thmtformatoptarg {Functional Equation}}{101}{theorem.7.31}}
\@writefile{loe}{\contentsline {proof}{\numberline {\let \autodot \@empty }Proof}{101}{thmt@dummyctr.dummy.423}}
\@writefile{loe}{\contentsline {corollary}{\numberline {7.32}Corollary}{102}{corollary.7.32}}
\newlabel{cor:cha320:func-exp}{{7.32}{102}{}{corollary.7.32}{}}
\newlabel{cor:cha320:func-exp:1}{{{{(1)}}}{102}{}{Item.329}{}}
\newlabel{cor:cha320:func-exp:3}{{{{(2)}}}{102}{}{Item.330}{}}
\newlabel{cor:cha320:func-exp:4}{{{{(3)}}}{102}{}{Item.331}{}}
\newlabel{cor:cha320:func-exp:5}{{{{(4)}}}{102}{}{Item.332}{}}
\@writefile{loe}{\contentsline {proof}{\numberline {\let \autodot \@empty }Proof}{102}{thmt@dummyctr.dummy.425}}
\@writefile{loe}{\contentsline {proposition}{\numberline {7.33}Proposition}{102}{proposition.7.33}}
\@writefile{loe}{\contentsline {proof}{\numberline {\let \autodot \@empty }Proof}{102}{thmt@dummyctr.dummy.427}}
\@writefile{loe}{\contentsline {remark}{\numberline {7.34}Remark}{102}{remark.7.34}}
\newlabel{rem:cha320:tech}{{7.34}{102}{}{remark.7.34}{}}
\@writefile{loe}{\contentsline {proof}{\numberline {\let \autodot \@empty }Proof}{103}{thmt@dummyctr.dummy.429}}
\@writefile{loe}{\contentsline {proposition}{\numberline {7.35}Proposition}{103}{proposition.7.35}}
\@writefile{loe}{\contentsline {proof}{\numberline {\let \autodot \@empty }Proof}{103}{thmt@dummyctr.dummy.431}}
\newlabel{eq:cha320:anbn}{{7.3}{103}{}{equation.7.5.3}{}}
\@writefile{loe}{\contentsline {proposition}{\numberline {7.36}Proposition}{104}{proposition.7.36}}
\@writefile{loe}{\contentsline {proof}{\numberline {\let \autodot \@empty }Proof}{104}{thmt@dummyctr.dummy.433}}
\@writefile{loe}{\contentsline {proposition}{\numberline {7.37}Proposition}{104}{proposition.7.37}}
\newlabel{prop:cha320:exp-sur}{{7.37}{104}{}{proposition.7.37}{}}
\@writefile{loe}{\contentsline {proof}{\numberline {\let \autodot \@empty }Proof}{104}{thmt@dummyctr.dummy.435}}
\@writefile{loe}{\contentsline {definition}{\numberline {7.38}Definition}{104}{definition.7.38}}
\@writefile{loe}{\contentsline {remark}{\numberline {7.39}Remark}{104}{remark.7.39}}
\@writefile{loe}{\contentsline {proof}{\numberline {\let \autodot \@empty }Proof}{105}{thmt@dummyctr.dummy.438}}
\@writefile{loe}{\contentsline {proposition}{\numberline {7.40}Proposition}{105}{proposition.7.40}}
\@writefile{loe}{\contentsline {proof}{\numberline {\let \autodot \@empty }Proof}{105}{thmt@dummyctr.dummy.440}}
\@writefile{loe}{\contentsline {definition}{\numberline {7.41}Definition}{105}{definition.7.41}}
\@writefile{loe}{\contentsline {remark}{\numberline {7.42}Remark}{105}{remark.7.42}}
\@writefile{loe}{\contentsline {proof}{\numberline {\let \autodot \@empty }Proof}{105}{thmt@dummyctr.dummy.443}}
\@writefile{loe}{\contentsline {remark}{\numberline {7.43}Remark}{105}{remark.7.43}}
\@writefile{loe}{\contentsline {proof}{\numberline {\let \autodot \@empty }Proof}{105}{thmt@dummyctr.dummy.445}}
\@writefile{loe}{\contentsline {remark}{\numberline {7.44}Remark}{106}{remark.7.44}}
\newlabel{rem:cha320:exp-monotone}{{7.44}{106}{}{remark.7.44}{}}
\@writefile{loe}{\contentsline {proof}{\numberline {\let \autodot \@empty }Proof}{106}{thmt@dummyctr.dummy.447}}
\@writefile{loe}{\contentsline {proposition}{\numberline {7.45}Proposition}{106}{proposition.7.45}}
\newlabel{prop:cha320:exp-rules}{{7.45}{106}{}{proposition.7.45}{}}
\@writefile{loe}{\contentsline {proof}{\numberline {\let \autodot \@empty }Proof}{106}{thmt@dummyctr.dummy.449}}
\@writefile{loe}{\contentsline {remark}{\numberline {7.46}Remark}{107}{remark.7.46}}
\newlabel{rem:cha320:root}{{7.46}{107}{}{remark.7.46}{}}
\@writefile{loe}{\contentsline {proof}{\numberline {\let \autodot \@empty }Proof}{107}{thmt@dummyctr.dummy.451}}
\@writefile{loe}{\contentsline {definition}{\numberline {7.47}Definition}{107}{definition.7.47}}
\@writefile{loe}{\contentsline {remark}{\numberline {7.48}Remark}{107}{remark.7.48}}
\newlabel{prop:cha320:exp-rules-zero}{{7.48}{107}{}{remark.7.48}{}}
\@writefile{loe}{\contentsline {proof}{\numberline {\let \autodot \@empty }Proof}{107}{thmt@dummyctr.dummy.454}}
\@writefile{loe}{\contentsline {proposition}{\numberline {7.49}Proposition}{107}{proposition.7.49}}
\newlabel{prop:cha320:power-monotone}{{7.49}{107}{}{proposition.7.49}{}}
\@writefile{loe}{\contentsline {proof}{\numberline {\let \autodot \@empty }Proof}{107}{thmt@dummyctr.dummy.456}}
\BKM@entry{id=40,dest={73656374696F6E2E372E36},srcline={1200},srcfile={6368613332302E746578}}{436F73696E6520616E642053696E65}
\@writefile{toc}{\contentsline {section}{\numberline {7.6}Cosine and Sine}{108}{section.7.6}}
\@writefile{loe}{\contentsline {definition}{\numberline {7.50}Definition}{108}{definition.7.50}}
\@writefile{loe}{\contentsline {remark}{\numberline {7.51}Remark}{108}{remark.7.51}}
\@writefile{loe}{\contentsline {proof}{\numberline {\let \autodot \@empty }Proof}{108}{thmt@dummyctr.dummy.459}}
\@writefile{loe}{\contentsline {proposition}{\numberline {7.52}Proposition}{108}{proposition.7.52}}
\newlabel{prop:cha320:trig-basic}{{7.52}{108}{}{proposition.7.52}{}}
\newlabel{prop:cha320:trig-basic:1}{{{{(1)}}}{108}{}{Item.390}{}}
\newlabel{prop:cha320:trig-basic:2}{{{{(2)}}}{108}{}{Item.391}{}}
\newlabel{prop:cha320:trig-basic:3}{{{{(3)}}}{108}{}{Item.392}{}}
\newlabel{prop:cha320:trig-basic:4}{{{{(4)}}}{108}{}{Item.393}{}}
\newlabel{prop:cha320:trig-basic:5}{{{{(5)}}}{108}{}{Item.394}{}}
\newlabel{prop:cha320:trig-basic:6}{{{{(6)}}}{108}{}{Item.395}{}}
\@writefile{loe}{\contentsline {proof}{\numberline {\let \autodot \@empty }Proof}{109}{thmt@dummyctr.dummy.461}}
\@writefile{loe}{\contentsline {proposition}{\numberline {7.53}Proposition\thmtformatoptarg {Addition Formulas}}{109}{proposition.7.53}}
\newlabel{prop:cha320:trig-add}{{7.53}{109}{Addition Formulas}{proposition.7.53}{}}
\newlabel{prop:cha320:trig-add:1}{{{{(1)}}}{109}{Addition Formulas}{Item.402}{}}
\newlabel{prop:cha320:trig-add:2}{{{{(2)}}}{109}{Addition Formulas}{Item.403}{}}
\newlabel{prop:cha320:trig-add:3}{{{{(3)}}}{109}{Addition Formulas}{Item.404}{}}
\newlabel{prop:cha320:trig-add:4}{{{{(4)}}}{109}{Addition Formulas}{Item.405}{}}
\@writefile{loe}{\contentsline {proof}{\numberline {\let \autodot \@empty }Proof}{109}{thmt@dummyctr.dummy.463}}
\@writefile{loe}{\contentsline {proposition}{\numberline {7.54}Proposition}{109}{proposition.7.54}}
\newlabel{prop:cha320:trig-series}{{7.54}{109}{}{proposition.7.54}{}}
\@writefile{loe}{\contentsline {proof}{\numberline {\let \autodot \@empty }Proof}{109}{thmt@dummyctr.dummy.465}}
\@writefile{loe}{\contentsline {proposition}{\numberline {7.55}Proposition}{110}{proposition.7.55}}
\newlabel{prop:cha320:trig-series-values}{{7.55}{110}{}{proposition.7.55}{}}
\@writefile{loe}{\contentsline {proof}{\numberline {\let \autodot \@empty }Proof}{110}{thmt@dummyctr.dummy.467}}
\@writefile{loe}{\contentsline {proposition}{\numberline {7.56}Proposition}{111}{proposition.7.56}}
\@writefile{loe}{\contentsline {proof}{\numberline {\let \autodot \@empty }Proof}{111}{thmt@dummyctr.dummy.469}}
\@writefile{loe}{\contentsline {remark}{\numberline {7.57}Remark}{111}{remark.7.57}}
\@writefile{loe}{\contentsline {proof}{\numberline {\let \autodot \@empty }Proof}{111}{thmt@dummyctr.dummy.471}}
\@writefile{loe}{\contentsline {definition}{\numberline {7.58}Definition}{111}{definition.7.58}}
\@writefile{loe}{\contentsline {remark}{\numberline {7.59}Remark}{111}{remark.7.59}}
\@writefile{loe}{\contentsline {proof}{\numberline {\let \autodot \@empty }Proof}{111}{thmt@dummyctr.dummy.474}}
\@writefile{loe}{\contentsline {proposition}{\numberline {7.60}Proposition}{111}{proposition.7.60}}
\newlabel{prop:cha320:trig-periodic}{{7.60}{111}{}{proposition.7.60}{}}
\newlabel{prop:cha320:trig-periodic:1}{{{{(1)}}}{111}{}{Item.410}{}}
\newlabel{prop:cha320:trig-periodic:2}{{{{(2)}}}{111}{}{Item.411}{}}
\newlabel{prop:cha320:trig-periodic:3}{{{{(3)}}}{111}{}{Item.412}{}}
\newlabel{prop:cha320:trig-periodic:4}{{{{(4)}}}{111}{}{Item.413}{}}
\newlabel{prop:cha320:trig-periodic:5}{{{{(5)}}}{111}{}{Item.414}{}}
\newlabel{prop:cha320:trig-periodic:6}{{{{(6)}}}{111}{}{Item.415}{}}
\newlabel{prop:cha320:trig-periodic:7}{{{{(7)}}}{111}{}{Item.416}{}}
\newlabel{prop:cha320:trig-periodic:8}{{{{(8)}}}{111}{}{Item.417}{}}
\newlabel{prop:cha320:trig-periodic:9}{{{{(9)}}}{112}{}{Item.418}{}}
\newlabel{prop:cha320:trig-periodic:10}{{{{(10)}}}{112}{}{Item.419}{}}
\newlabel{prop:cha320:trig-periodic:11}{{{{(11)}}}{112}{}{Item.420}{}}
\newlabel{prop:cha320:trig-periodic:12}{{{{(12)}}}{112}{}{Item.421}{}}
\@writefile{loe}{\contentsline {proof}{\numberline {\let \autodot \@empty }Proof}{112}{thmt@dummyctr.dummy.476}}
\@writefile{loe}{\contentsline {definition}{\numberline {7.61}Definition}{112}{definition.7.61}}
\@writefile{loe}{\contentsline {remark}{\numberline {7.62}Remark}{113}{remark.7.62}}
\@writefile{loe}{\contentsline {proof}{\numberline {\let \autodot \@empty }Proof}{113}{thmt@dummyctr.dummy.479}}
\BKM@entry{id=41,dest={636861707465722E38},srcline={1},srcfile={6368613333302E746578}}{446966666572656E74696162696C697479}
\BKM@entry{id=42,dest={73656374696F6E2E382E31},srcline={4},srcfile={6368613333302E746578}}{4C696D697473206F662046756E6374696F6E73}
\@writefile{toc}{\contentsline {chapter}{\numberline {8}Differentiability}{114}{chapter.8}}
\@writefile{lof}{\addvspace {10\p@ }}
\@writefile{lot}{\addvspace {10\p@ }}
\@writefile{loa}{\addvspace {10\p@ }}
\newlabel{cha:cha330}{{8}{114}{Differentiability}{chapter.8}{}}
\@writefile{toc}{\contentsline {section}{\numberline {8.1}Limits of Functions}{114}{section.8.1}}
\@writefile{loe}{\addvspace {10\p@ }}
\@writefile{loe}{\contentsline {definition}{\numberline {8.1}Definition}{114}{definition.8.1}}
\@writefile{loe}{\contentsline {remark}{\numberline {8.2}Remark}{114}{remark.8.2}}
\newlabel{rem:cha330:open-limit-point}{{8.2}{114}{}{remark.8.2}{}}
\@writefile{loe}{\contentsline {proof}{\numberline {\let \autodot \@empty }Proof}{114}{thmt@dummyctr.dummy.482}}
\@writefile{loe}{\contentsline {definition}{\numberline {8.3}Definition}{114}{definition.8.3}}
\@writefile{loe}{\contentsline {proposition}{\numberline {8.4}Proposition}{115}{proposition.8.4}}
\newlabel{rem:cha330:mix}{{8.4}{115}{}{proposition.8.4}{}}
\@writefile{loe}{\contentsline {proof}{\numberline {\let \autodot \@empty }Proof}{115}{thmt@dummyctr.dummy.485}}
\@writefile{loe}{\contentsline {proposition}{\numberline {8.5}Proposition}{115}{proposition.8.5}}
\newlabel{rem:cha330:cont-flim}{{8.5}{115}{}{proposition.8.5}{}}
\newlabel{rem:cha330:cont-flim:1}{{{{(1)}}}{115}{}{Item.434}{}}
\newlabel{rem:cha330:cont-flim:2}{{{{(2)}}}{115}{}{Item.435}{}}
\@writefile{loe}{\contentsline {proof}{\numberline {\let \autodot \@empty }Proof}{115}{thmt@dummyctr.dummy.487}}
\@writefile{loe}{\contentsline {proposition}{\numberline {8.6}Proposition}{115}{proposition.8.6}}
\newlabel{rem:cha330:flim-res}{{8.6}{115}{}{proposition.8.6}{}}
\newlabel{rem:cha330:flim-res:1}{{{{(1)}}}{115}{}{Item.436}{}}
\newlabel{rem:cha330:flim-res:2}{{{{(2)}}}{115}{}{Item.437}{}}
\@writefile{loe}{\contentsline {proof}{\numberline {\let \autodot \@empty }Proof}{115}{thmt@dummyctr.dummy.489}}
\@writefile{loe}{\contentsline {proposition}{\numberline {8.7}Proposition}{116}{proposition.8.7}}
\newlabel{prop:cha330:flim-comb}{{8.7}{116}{}{proposition.8.7}{}}
\@writefile{loe}{\contentsline {proof}{\numberline {\let \autodot \@empty }Proof}{116}{thmt@dummyctr.dummy.491}}
\@writefile{loe}{\contentsline {remark}{\numberline {8.8}Remark}{116}{remark.8.8}}
\newlabel{rem:cha330:flim-zero}{{8.8}{116}{}{remark.8.8}{}}
\newlabel{rem:cha330:flim-zero:1}{{{{(1)}}}{116}{}{Item.442}{}}
\newlabel{rem:cha330:flim-zero:2}{{{{(2)}}}{116}{}{Item.443}{}}
\@writefile{loe}{\contentsline {proof}{\numberline {\let \autodot \@empty }Proof}{116}{thmt@dummyctr.dummy.493}}
\@writefile{loe}{\contentsline {remark}{\numberline {8.9}Remark}{116}{remark.8.9}}
\newlabel{rem:cha330:zero-bounded}{{8.9}{116}{}{remark.8.9}{}}
\@writefile{loe}{\contentsline {proof}{\numberline {\let \autodot \@empty }Proof}{116}{thmt@dummyctr.dummy.495}}
\BKM@entry{id=43,dest={73656374696F6E2E382E32},srcline={278},srcfile={6368613333302E746578}}{446966666572656E74696162696C697479}
\@writefile{loe}{\contentsline {definition}{\numberline {8.10}Definition}{117}{definition.8.10}}
\@writefile{loe}{\contentsline {remark}{\numberline {8.11}Remark}{117}{remark.8.11}}
\newlabel{rem:cha330:open-two-sided}{{8.11}{117}{}{remark.8.11}{}}
\@writefile{loe}{\contentsline {proof}{\numberline {\let \autodot \@empty }Proof}{117}{thmt@dummyctr.dummy.498}}
\@writefile{loe}{\contentsline {remark}{\numberline {8.12}Remark}{117}{remark.8.12}}
\newlabel{rem:cha330:right-left}{{8.12}{117}{}{remark.8.12}{}}
\@writefile{loe}{\contentsline {proof}{\numberline {\let \autodot \@empty }Proof}{117}{thmt@dummyctr.dummy.500}}
\@writefile{toc}{\contentsline {section}{\numberline {8.2}Differentiability}{117}{section.8.2}}
\@writefile{loe}{\contentsline {definition}{\numberline {8.13}Definition}{117}{definition.8.13}}
\@writefile{loe}{\contentsline {remark}{\numberline {8.14}Remark}{118}{remark.8.14}}
\newlabel{rem:cha330:h}{{8.14}{118}{}{remark.8.14}{}}
\newlabel{rem:cha330:h:1}{{{{(1)}}}{118}{}{Item.451}{}}
\newlabel{rem:cha330:h:2}{{{{(2)}}}{118}{}{Item.452}{}}
\@writefile{loe}{\contentsline {proof}{\numberline {\let \autodot \@empty }Proof}{118}{thmt@dummyctr.dummy.503}}
\@writefile{loe}{\contentsline {remark}{\numberline {8.15}Remark}{118}{remark.8.15}}
\newlabel{rem:cha330:diff-res}{{8.15}{118}{}{remark.8.15}{}}
\@writefile{loe}{\contentsline {proof}{\numberline {\let \autodot \@empty }Proof}{118}{thmt@dummyctr.dummy.505}}
\@writefile{loe}{\contentsline {proposition}{\numberline {8.16}Proposition}{119}{proposition.8.16}}
\@writefile{loe}{\contentsline {proof}{\numberline {\let \autodot \@empty }Proof}{119}{thmt@dummyctr.dummy.507}}
\@writefile{loe}{\contentsline {remark}{\numberline {8.17}Remark}{119}{remark.8.17}}
\@writefile{loe}{\contentsline {proof}{\numberline {\let \autodot \@empty }Proof}{119}{thmt@dummyctr.dummy.509}}
\@writefile{loe}{\contentsline {theorem}{\numberline {8.18}Theorem}{119}{theorem.8.18}}
\newlabel{thm:cha330:rules}{{8.18}{119}{}{theorem.8.18}{}}
\@writefile{loe}{\contentsline {proof}{\numberline {\let \autodot \@empty }Proof}{119}{thmt@dummyctr.dummy.511}}
\@writefile{loe}{\contentsline {proposition}{\numberline {8.19}Proposition}{121}{proposition.8.19}}
\newlabel{prop:cha330:const-power-diff}{{8.19}{121}{}{proposition.8.19}{}}
\@writefile{loe}{\contentsline {proof}{\numberline {\let \autodot \@empty }Proof}{121}{thmt@dummyctr.dummy.513}}
\@writefile{loe}{\contentsline {theorem}{\numberline {8.20}Theorem\thmtformatoptarg {Chain Rule}}{121}{theorem.8.20}}
\newlabel{thm:cha330:chain-rule}{{8.20}{121}{Chain Rule}{theorem.8.20}{}}
\@writefile{loe}{\contentsline {proof}{\numberline {\let \autodot \@empty }Proof}{121}{thmt@dummyctr.dummy.515}}
\@writefile{loe}{\contentsline {corollary}{\numberline {8.21}Corollary}{122}{corollary.8.21}}
\@writefile{loe}{\contentsline {proof}{\numberline {\let \autodot \@empty }Proof}{122}{thmt@dummyctr.dummy.517}}
\@writefile{loe}{\contentsline {theorem}{\numberline {8.22}Theorem}{122}{theorem.8.22}}
\newlabel{thm:cha330:inv-diff}{{8.22}{122}{}{theorem.8.22}{}}
\@writefile{loe}{\contentsline {proof}{\numberline {\let \autodot \@empty }Proof}{122}{thmt@dummyctr.dummy.519}}
\@writefile{loe}{\contentsline {proposition}{\numberline {8.23}Proposition}{123}{proposition.8.23}}
\@writefile{loe}{\contentsline {proof}{\numberline {\let \autodot \@empty }Proof}{123}{thmt@dummyctr.dummy.521}}
\BKM@entry{id=44,dest={73656374696F6E2E382E33},srcline={754},srcfile={6368613333302E746578}}{4D6F6E6F746F6E696369747920616E64204C6F63616C2045787472656D61207669612046697273742044657269766174697665}
\@writefile{toc}{\contentsline {section}{\numberline {8.3}Monotonicity and Local Extrema via First Derivative}{125}{section.8.3}}
\newlabel{sec:cha330:extrema}{{8.3}{125}{Monotonicity and Local Extrema via First Derivative}{section.8.3}{}}
\@writefile{loe}{\contentsline {definition}{\numberline {8.24}Definition}{125}{definition.8.24}}
\@writefile{loe}{\contentsline {proposition}{\numberline {8.25}Proposition}{125}{proposition.8.25}}
\newlabel{prop:cha330:extreme-0}{{8.25}{125}{}{proposition.8.25}{}}
\@writefile{loe}{\contentsline {proof}{\numberline {\let \autodot \@empty }Proof}{125}{thmt@dummyctr.dummy.524}}
\@writefile{loe}{\contentsline {remark}{\numberline {8.26}Remark}{126}{remark.8.26}}
\newlabel{rem:cha330:open-crit}{{8.26}{126}{}{remark.8.26}{}}
\@writefile{loe}{\contentsline {proof}{\numberline {\let \autodot \@empty }Proof}{126}{thmt@dummyctr.dummy.526}}
\@writefile{loe}{\contentsline {proposition}{\numberline {8.27}Proposition\thmtformatoptarg {Rolle's Theorem}}{126}{proposition.8.27}}
\newlabel{thm:cha330:rolle}{{8.27}{126}{Rolle's Theorem}{proposition.8.27}{}}
\@writefile{loe}{\contentsline {proof}{\numberline {\let \autodot \@empty }Proof}{126}{thmt@dummyctr.dummy.528}}
\@writefile{loe}{\contentsline {theorem}{\numberline {8.28}Theorem\thmtformatoptarg {Mean Value Theorem}}{126}{theorem.8.28}}
\@writefile{loe}{\contentsline {proof}{\numberline {\let \autodot \@empty }Proof}{126}{thmt@dummyctr.dummy.530}}
\@writefile{loe}{\contentsline {proposition}{\numberline {8.29}Proposition}{126}{proposition.8.29}}
\newlabel{prop:cha330:monotone}{{8.29}{126}{}{proposition.8.29}{}}
\@writefile{loe}{\contentsline {proof}{\numberline {\let \autodot \@empty }Proof}{126}{thmt@dummyctr.dummy.532}}
\@writefile{loe}{\contentsline {remark}{\numberline {8.30}Remark}{127}{remark.8.30}}
\newlabel{rem:cha330:extrema-by-monotonicity}{{8.30}{127}{}{remark.8.30}{}}
\@writefile{loe}{\contentsline {proof}{\numberline {\let \autodot \@empty }Proof}{127}{thmt@dummyctr.dummy.534}}
\@writefile{loe}{\contentsline {remark}{\numberline {8.31}Remark}{127}{remark.8.31}}
\newlabel{rem:cha330:strict-no-extrema}{{8.31}{127}{}{remark.8.31}{}}
\@writefile{loe}{\contentsline {proof}{\numberline {\let \autodot \@empty }Proof}{127}{thmt@dummyctr.dummy.536}}
\@writefile{loe}{\contentsline {proposition}{\numberline {8.32}Proposition}{128}{proposition.8.32}}
\newlabel{prop:cha330:extrema-res}{{8.32}{128}{}{proposition.8.32}{}}
\@writefile{loe}{\contentsline {proof}{\numberline {\let \autodot \@empty }Proof}{128}{thmt@dummyctr.dummy.538}}
\@writefile{loe}{\contentsline {definition}{\numberline {8.33}Definition}{128}{definition.8.33}}
\@writefile{loe}{\contentsline {remark}{\numberline {8.34}Remark}{128}{remark.8.34}}
\newlabel{rem:cha330:interval-partition}{{8.34}{128}{}{remark.8.34}{}}
\@writefile{loe}{\contentsline {proof}{\numberline {\let \autodot \@empty }Proof}{128}{thmt@dummyctr.dummy.541}}
\@writefile{loe}{\contentsline {remark}{\numberline {8.35}Remark}{129}{remark.8.35}}
\newlabel{rem:cha330:classify}{{8.35}{129}{}{remark.8.35}{}}
\@writefile{loe}{\contentsline {proof}{\numberline {\let \autodot \@empty }Proof}{129}{thmt@dummyctr.dummy.543}}
\@writefile{loe}{\contentsline {remark}{\numberline {8.36}Remark}{129}{remark.8.36}}
\@writefile{loe}{\contentsline {proof}{\numberline {\let \autodot \@empty }Proof}{129}{thmt@dummyctr.dummy.545}}
\@writefile{loe}{\contentsline {example}{\numberline {8.37}Example}{130}{example.8.37}}
\@writefile{loe}{\contentsline {example}{\numberline {8.38}Example}{130}{example.8.38}}
\BKM@entry{id=45,dest={73656374696F6E2E382E34},srcline={1148},srcfile={6368613333302E746578}}{4C696D697473206F66205265616C2046756E6374696F6E73}
\@writefile{toc}{\contentsline {section}{\numberline {8.4}Limits of Real Functions}{131}{section.8.4}}
\@writefile{loe}{\contentsline {definition}{\numberline {8.39}Definition}{131}{definition.8.39}}
\@writefile{loe}{\contentsline {definition}{\numberline {8.40}Definition}{131}{definition.8.40}}
\@writefile{loe}{\contentsline {remark}{\numberline {8.41}Remark}{131}{remark.8.41}}
\@writefile{loe}{\contentsline {proof}{\numberline {\let \autodot \@empty }Proof}{131}{thmt@dummyctr.dummy.551}}
\@writefile{lot}{\contentsline {table}{\numberline {8.1}{\ignorespaces See \autoref  {prop:cha330:flim-int}.\relax }}{132}{table.caption.7}}
\newlabel{tab:cha330:flim-int}{{8.1}{132}{See \autoref {prop:cha330:flim-int}.\relax }{table.caption.7}{}}
\@writefile{loe}{\contentsline {remark}{\numberline {8.42}Remark}{132}{remark.8.42}}
\newlabel{rem:cha330:0-infty}{{8.42}{132}{}{remark.8.42}{}}
\newlabel{rem:cha330:0-infty:1}{{{{(1)}}}{132}{}{Item.511}{}}
\newlabel{rem:cha330:0-infty:2}{{{{(2)}}}{132}{}{Item.512}{}}
\@writefile{loe}{\contentsline {proof}{\numberline {\let \autodot \@empty }Proof}{132}{thmt@dummyctr.dummy.553}}
\@writefile{loe}{\contentsline {definition}{\numberline {8.43}Definition}{132}{definition.8.43}}
\@writefile{loe}{\contentsline {proposition}{\numberline {8.44}Proposition}{132}{proposition.8.44}}
\newlabel{prop:cha330:flim-int}{{8.44}{132}{}{proposition.8.44}{}}
\@writefile{loe}{\contentsline {proof}{\numberline {\let \autodot \@empty }Proof}{132}{thmt@dummyctr.dummy.556}}
\@writefile{loe}{\contentsline {remark}{\numberline {8.45}Remark}{133}{remark.8.45}}
\newlabel{prop:cha330:flim-comp}{{8.45}{133}{}{remark.8.45}{}}
\@writefile{loe}{\contentsline {proof}{\numberline {\let \autodot \@empty }Proof}{133}{thmt@dummyctr.dummy.558}}
\@writefile{loe}{\contentsline {proposition}{\numberline {8.46}Proposition}{133}{proposition.8.46}}
\newlabel{prop:cha330:flim-exp-ln}{{8.46}{133}{}{proposition.8.46}{}}
\newlabel{prop:cha330:flim-exp-ln:1}{{{{(1)}}}{133}{}{Item.513}{}}
\newlabel{prop:cha330:flim-exp-ln:2}{{{{(2)}}}{133}{}{Item.514}{}}
\newlabel{prop:cha330:flim-exp-ln:3}{{{{(3)}}}{133}{}{Item.515}{}}
\newlabel{prop:cha330:flim-exp-ln:4}{{{{(4)}}}{133}{}{Item.516}{}}
\newlabel{prop:cha330:flim-exp-ln:5}{{{{(5)}}}{133}{}{Item.517}{}}
\@writefile{loe}{\contentsline {proof}{\numberline {\let \autodot \@empty }Proof}{133}{thmt@dummyctr.dummy.560}}
\@writefile{loe}{\contentsline {theorem}{\numberline {8.47}Theorem\thmtformatoptarg {Generalized Mean Value Theorem}}{134}{theorem.8.47}}
\@writefile{loe}{\contentsline {proof}{\numberline {\let \autodot \@empty }Proof}{134}{thmt@dummyctr.dummy.562}}
\@writefile{loe}{\contentsline {theorem}{\numberline {8.48}Theorem\thmtformatoptarg {de~l'H\^{o}pital\xspace  's Rule}}{134}{theorem.8.48}}
\newlabel{thm:cha330:lHopital:1}{{{{(1)}}}{134}{\lHopital 's Rule}{Item.521}{}}
\newlabel{thm:cha330:lHopital:2}{{{{(2)}}}{134}{\lHopital 's Rule}{Item.522}{}}
\@writefile{loe}{\contentsline {proof}{\numberline {\let \autodot \@empty }Proof}{134}{thmt@dummyctr.dummy.564}}
\newlabel{eq:cha330:lHopital:1}{{8.1}{134}{}{equation.8.4.1}{}}
\newlabel{eq:cha330:lHopital:2}{{8.2}{134}{}{equation.8.4.2}{}}
\newlabel{eq:cha330:lHopital:3}{{8.3}{135}{}{equation.8.4.3}{}}
\newlabel{eq:cha330:lHopital:4}{{8.4}{135}{}{equation.8.4.4}{}}
\@writefile{loe}{\contentsline {example}{\numberline {8.49}Example}{135}{example.8.49}}
\@writefile{loe}{\contentsline {proof}{\numberline {\let \autodot \@empty }Proof}{135}{thmt@dummyctr.dummy.566}}
\BKM@entry{id=46,dest={73656374696F6E2E382E35},srcline={1532},srcfile={6368613333302E746578}}{4C6F63616C2045787472656D6120766961205365636F6E642044657269766174697665}
\@writefile{toc}{\contentsline {section}{\numberline {8.5}Local Extrema via Second Derivative}{136}{section.8.5}}
\@writefile{loe}{\contentsline {proposition}{\numberline {8.50}Proposition}{136}{proposition.8.50}}
\newlabel{prop:cha330:exrema-second}{{8.50}{136}{}{proposition.8.50}{}}
\@writefile{loe}{\contentsline {proof}{\numberline {\let \autodot \@empty }Proof}{136}{thmt@dummyctr.dummy.568}}
\newlabel{LastPage}{{}{137}{}{page.137}{}}
\xdef\lastpage@lastpage{137}
\xdef\lastpage@lastpageHy{137}
